#
## Alias OBJ Material File
# Exported from SketchUp, (c) 2000-2012 Trimble Navigation Limited

newmtl M_0094_PowderBlue
Ka 0.000000 0.000000 0.000000
Kd 0.690196 0.878431 0.901961
Ks 0.330000 0.330000 0.330000

newmtl ForegroundColor
Ka 0.000000 0.000000 0.000000
Kd 0.000000 0.000000 0.000000
Ks 0.330000 0.330000 0.330000

