Version 4
SHEET 1 3940 2500
WIRE 2352 416 1552 416
WIRE 1392 704 1280 704
WIRE 1488 704 1472 704
WIRE 1600 704 1488 704
WIRE 2848 704 2784 704
WIRE 2992 704 2928 704
WIRE 3104 704 2992 704
WIRE 3200 704 3184 704
WIRE 3312 704 3200 704
WIRE 1392 784 1392 704
WIRE 1424 784 1392 784
WIRE 1488 784 1488 704
WIRE 3104 784 3104 704
WIRE 3136 784 3104 784
WIRE 3200 784 3200 704
WIRE 1280 832 1280 704
WIRE 1296 832 1280 832
WIRE 2992 832 2992 704
WIRE 3008 832 2992 832
WIRE 1472 848 1360 848
WIRE 1600 848 1600 704
WIRE 1600 848 1552 848
WIRE 3184 848 3072 848
WIRE 3312 848 3312 704
WIRE 3312 848 3264 848
WIRE 720 864 720 816
WIRE 848 864 720 864
WIRE 992 864 848 864
WIRE 1120 864 992 864
WIRE 1296 864 1120 864
WIRE 1600 864 1600 848
WIRE 1760 864 1664 864
WIRE 1984 864 1760 864
WIRE 2096 864 2064 864
WIRE 2144 864 2096 864
WIRE 2256 864 2224 864
WIRE 2304 864 2256 864
WIRE 2416 864 2384 864
WIRE 2480 864 2416 864
WIRE 2576 864 2560 864
WIRE 2928 864 2576 864
WIRE 3008 864 2928 864
WIRE 3312 864 3312 848
WIRE 3392 864 3312 864
WIRE 3456 864 3392 864
WIRE 720 896 720 864
WIRE 1120 896 1120 864
WIRE 2096 896 2096 864
WIRE 2128 896 2096 896
WIRE 2256 896 2256 864
WIRE 2288 896 2256 896
WIRE 2416 896 2416 864
WIRE 2448 896 2416 896
WIRE 2576 896 2576 864
WIRE 2608 896 2576 896
WIRE 2096 912 2096 896
WIRE 2256 912 2256 896
WIRE 2416 912 2416 896
WIRE 2576 912 2576 896
WIRE 848 1008 848 864
WIRE 2096 1056 2096 976
WIRE 2256 1056 2256 976
WIRE 2416 1056 2416 976
WIRE 2576 1056 2576 976
WIRE 992 1104 992 864
WIRE 2048 1200 2048 1136
WIRE 2048 1200 1888 1200
WIRE 2208 1200 2208 1136
WIRE 2208 1200 2048 1200
WIRE 2368 1200 2368 1136
WIRE 2368 1200 2208 1200
WIRE 2528 1200 2528 1136
WIRE 2528 1200 2368 1200
WIRE 1888 1216 1888 1200
WIRE 2128 1328 2128 896
WIRE 2128 1328 2096 1328
WIRE 2288 1328 2288 896
WIRE 2288 1328 2256 1328
WIRE 2448 1328 2448 896
WIRE 2448 1328 2416 1328
WIRE 2608 1328 2608 896
WIRE 2608 1328 2576 1328
WIRE 2096 1440 2096 1392
WIRE 2256 1440 2256 1392
WIRE 2416 1440 2416 1392
WIRE 2576 1440 2576 1392
WIRE 2048 1584 2048 1520
WIRE 2048 1584 1888 1584
WIRE 2208 1584 2208 1520
WIRE 2208 1584 2048 1584
WIRE 2368 1584 2368 1520
WIRE 2368 1584 2208 1584
WIRE 2528 1584 2528 1520
WIRE 2528 1584 2368 1584
WIRE 1888 1600 1888 1584
WIRE 2128 1728 2128 1328
WIRE 2128 1728 2096 1728
WIRE 2288 1728 2288 1328
WIRE 2288 1728 2256 1728
WIRE 2448 1728 2448 1328
WIRE 2448 1728 2416 1728
WIRE 2608 1728 2608 1328
WIRE 2608 1728 2576 1728
WIRE 2096 1840 2096 1792
WIRE 2256 1840 2256 1792
WIRE 2416 1840 2416 1792
WIRE 2576 1840 2576 1792
WIRE 2048 1984 2048 1920
WIRE 2048 1984 1888 1984
WIRE 2208 1984 2208 1920
WIRE 2208 1984 2048 1984
WIRE 2368 1984 2368 1920
WIRE 2368 1984 2208 1984
WIRE 2528 1984 2528 1920
WIRE 2528 1984 2368 1984
WIRE 1888 2000 1888 1984
WIRE 2128 2128 2128 1728
WIRE 2128 2128 2096 2128
WIRE 2288 2128 2288 1728
WIRE 2288 2128 2256 2128
WIRE 2448 2128 2448 1728
WIRE 2448 2128 2416 2128
WIRE 2608 2128 2608 1728
WIRE 2608 2128 2576 2128
WIRE 2096 2240 2096 2192
WIRE 2256 2240 2256 2192
WIRE 2416 2240 2416 2192
WIRE 2576 2240 2576 2192
WIRE 2048 2384 2048 2320
WIRE 2048 2384 1888 2384
WIRE 2208 2384 2208 2320
WIRE 2208 2384 2048 2384
WIRE 2368 2384 2368 2320
WIRE 2368 2384 2208 2384
WIRE 2528 2384 2528 2320
WIRE 2528 2384 2368 2384
WIRE 1888 2400 1888 2384
FLAG 720 1056 0
FLAG 672 1040 0
FLAG 720 736 VDD_3
FLAG 1120 976 0
FLAG 848 1168 0
FLAG 800 1152 0
FLAG 992 1264 0
FLAG 944 1248 0
FLAG 464 816 0
FLAG 464 736 VDD_3
FLAG 1120 864 OUT_PRE
FLAG 592 1536 0
FLAG 592 1456 CON_S1
FLAG 672 992 CON_S1
FLAG 592 1744 0
FLAG 592 1664 CON_S2
FLAG 800 1104 CON_S2
FLAG 592 1952 0
FLAG 592 1872 CON_S3
FLAG 944 1200 CON_S3
FLAG 272 816 0
FLAG 272 736 VSS
FLAG 128 816 0
FLAG 128 736 VDD
FLAG 1328 816 VDD
FLAG 1328 880 VSS
FLAG 128 992 AC_TEST
FLAG 128 1072 0
FLAG 992 864 AC_TEST
FLAG 1760 944 0
FLAG 1760 784 VDD
FLAG 3040 816 VDD
FLAG 3040 880 VSS
FLAG 3392 864 OUT
FLAG 2784 768 0
FLAG 2576 1152 0
FLAG 2416 1152 0
FLAG 2256 1152 0
FLAG 2096 1152 0
FLAG 1888 1296 0
FLAG 2928 944 0
FLAG 2576 1536 0
FLAG 2416 1536 0
FLAG 2256 1536 0
FLAG 2096 1536 0
FLAG 1888 1680 0
FLAG 2576 1936 0
FLAG 2416 1936 0
FLAG 2256 1936 0
FLAG 2096 1936 0
FLAG 1888 2080 0
FLAG 2576 2336 0
FLAG 2416 2336 0
FLAG 2256 2336 0
FLAG 2096 2336 0
FLAG 1888 2480 0
SYMBOL sw 720 1072 M180
SYMATTR InstName S1
SYMBOL res 704 720 R0
SYMATTR InstName R1
SYMATTR Value 499
SYMBOL res 704 880 R0
SYMATTR InstName R2
SYMATTR Value 866
SYMBOL res 1104 880 R0
SYMATTR InstName R3
SYMATTR Value 2000
SYMBOL sw 848 1184 M180
SYMATTR InstName S2
SYMBOL res 832 992 R0
SYMATTR InstName R4
SYMATTR Value 1070
SYMBOL sw 992 1280 M180
SYMATTR InstName S3
SYMBOL res 976 1088 R0
SYMATTR InstName R5
SYMATTR Value 2320
SYMBOL cap 1664 848 R90
WINDOW 0 0 32 VBottom 2
WINDOW 3 32 32 VTop 2
SYMATTR InstName C1
SYMATTR Value 470n
SYMBOL voltage 464 720 R0
SYMATTR InstName V3
SYMATTR Value 3.3
SYMBOL voltage 592 1440 R0
WINDOW 123 0 0 Left 2
WINDOW 39 0 0 Left 2
SYMATTR InstName V4
SYMATTR Value PULSE(0 1 {3*PERIOD_8F} 1p 1p {2*PERIOD_8F} {PERIOD_F} 0)
SYMBOL voltage 592 1648 R0
WINDOW 123 0 0 Left 2
WINDOW 39 0 0 Left 2
SYMATTR InstName V5
SYMATTR Value PULSE(0 1 {2*PERIOD_8F} 1p 1p {4*PERIOD_8F} {PERIOD_F} 0)
SYMBOL voltage 592 1856 R0
WINDOW 123 0 0 Left 2
WINDOW 39 0 0 Left 2
SYMATTR InstName V6
SYMATTR Value PULSE(0 1 {PERIOD_8F} 1p 1p {6*PERIOD_8F} {PERIOD_F} 0)
SYMBOL ths3061_test 1328 784 R0
SYMATTR InstName U1
SYMBOL voltage 272 720 R0
SYMATTR InstName V7
SYMATTR Value -5
SYMBOL voltage 128 720 R0
SYMATTR InstName V8
SYMATTR Value 5
SYMBOL res 1568 832 R90
WINDOW 0 0 56 VBottom 2
WINDOW 3 32 56 VTop 2
SYMATTR InstName R7
SYMATTR Value 1
SYMBOL res 1488 688 R90
WINDOW 0 0 56 VBottom 2
WINDOW 3 32 56 VTop 2
SYMATTR InstName R8
SYMATTR Value 249
SYMBOL cap 1488 768 R90
WINDOW 0 0 32 VBottom 2
WINDOW 3 32 32 VTop 2
SYMATTR InstName C3
SYMATTR Value 1p
SYMBOL voltage 128 976 R0
WINDOW 123 24 152 Left 2
WINDOW 39 24 124 Left 2
SYMATTR Value2 AC 1u
SYMATTR SpiceLine Rser=250k
SYMATTR InstName V1
SYMATTR Value 0
SYMBOL res 1744 768 R0
SYMATTR InstName R15
SYMATTR Value 24.9k
SYMBOL res 1744 848 R0
SYMATTR InstName R16
SYMATTR Value 24.9k
SYMBOL ths3061_test 3040 784 R0
SYMATTR InstName U2
SYMBOL res 3280 832 R90
WINDOW 0 0 56 VBottom 2
WINDOW 3 32 56 VTop 2
SYMATTR InstName R17
SYMATTR Value 1
SYMBOL res 3200 688 R90
WINDOW 0 0 56 VBottom 2
WINDOW 3 32 56 VTop 2
SYMATTR InstName R18
SYMATTR Value 249
SYMBOL cap 3200 768 R90
WINDOW 0 0 32 VBottom 2
WINDOW 3 32 32 VTop 2
SYMATTR InstName C6
SYMATTR Value 1p
SYMBOL res 2944 688 R90
WINDOW 0 0 56 VBottom 2
WINDOW 3 32 56 VTop 2
SYMATTR InstName R19
SYMATTR Value 24.9
SYMBOL cap 2768 704 R0
SYMATTR InstName C7
SYMATTR Value 470n
SYMBOL res 2240 848 R90
WINDOW 0 0 56 VBottom 2
WINDOW 3 32 56 VTop 2
SYMATTR InstName R20
SYMATTR Value 24.9
SYMBOL cap 2240 912 R0
SYMATTR InstName C8
SYMATTR Value {C_FILT_10M}
SYMBOL res 2400 848 R90
WINDOW 0 0 56 VBottom 2
WINDOW 3 32 56 VTop 2
SYMATTR InstName R21
SYMATTR Value 24.9
SYMBOL cap 2400 912 R0
SYMATTR InstName C9
SYMATTR Value {C_FILT_10M}
SYMBOL res 2576 848 R90
WINDOW 0 0 56 VBottom 2
WINDOW 3 32 56 VTop 2
SYMATTR InstName R22
SYMATTR Value 24.9
SYMBOL cap 2560 912 R0
SYMATTR InstName C10
SYMATTR Value {C_FILT_10M}
SYMBOL res 2080 848 R90
WINDOW 0 0 56 VBottom 2
WINDOW 3 32 56 VTop 2
SYMATTR InstName R23
SYMATTR Value 24.9
SYMBOL cap 2080 912 R0
SYMATTR InstName C11
SYMATTR Value {C_FILT_10M}
SYMBOL nmos_rsf015n06 2048 1056 R0
SYMATTR InstName M1
SYMBOL nmos_rsf015n06 2208 1056 R0
SYMATTR InstName M2
SYMBOL nmos_rsf015n06 2368 1056 R0
SYMATTR InstName M3
SYMBOL nmos_rsf015n06 2528 1056 R0
SYMATTR InstName M4
SYMBOL voltage 1888 1200 R0
WINDOW 123 0 0 Left 2
WINDOW 39 0 0 Left 2
SYMATTR InstName V12
SYMATTR Value 0
SYMBOL res 2912 848 R0
SYMATTR InstName R24
SYMATTR Value 249k
SYMBOL cap 2240 1328 R0
SYMATTR InstName C2
SYMATTR Value {C_FILT_1M}
SYMBOL cap 2400 1328 R0
SYMATTR InstName C4
SYMATTR Value {C_FILT_1M}
SYMBOL cap 2560 1328 R0
SYMATTR InstName C5
SYMATTR Value {C_FILT_1M}
SYMBOL cap 2080 1328 R0
SYMATTR InstName C12
SYMATTR Value {C_FILT_1M}
SYMBOL nmos_rsf015n06 2048 1440 R0
SYMATTR InstName M5
SYMBOL nmos_rsf015n06 2208 1440 R0
SYMATTR InstName M6
SYMBOL nmos_rsf015n06 2368 1440 R0
SYMATTR InstName M7
SYMBOL nmos_rsf015n06 2528 1440 R0
SYMATTR InstName M8
SYMBOL voltage 1888 1584 R0
WINDOW 123 0 0 Left 2
WINDOW 39 0 0 Left 2
SYMATTR InstName V2
SYMATTR Value {V_CTRL_C_FILT_1M}
SYMBOL cap 2240 1728 R0
SYMATTR InstName C13
SYMATTR Value {C_FILT_100K}
SYMBOL cap 2400 1728 R0
SYMATTR InstName C14
SYMATTR Value {C_FILT_100K}
SYMBOL cap 2560 1728 R0
SYMATTR InstName C15
SYMATTR Value {C_FILT_100K}
SYMBOL cap 2080 1728 R0
SYMATTR InstName C16
SYMATTR Value {C_FILT_100K}
SYMBOL nmos_rsf015n06 2048 1840 R0
SYMATTR InstName M9
SYMBOL nmos_rsf015n06 2208 1840 R0
SYMATTR InstName M10
SYMBOL nmos_rsf015n06 2368 1840 R0
SYMATTR InstName M11
SYMBOL nmos_rsf015n06 2528 1840 R0
SYMATTR InstName M12
SYMBOL voltage 1888 1984 R0
WINDOW 123 0 0 Left 2
WINDOW 39 0 0 Left 2
SYMATTR InstName V9
SYMATTR Value 0
SYMBOL cap 2240 2128 R0
SYMATTR InstName C17
SYMATTR Value {C_FILT_10K}
SYMBOL cap 2400 2128 R0
SYMATTR InstName C18
SYMATTR Value {C_FILT_10K}
SYMBOL cap 2560 2128 R0
SYMATTR InstName C19
SYMATTR Value {C_FILT_10K}
SYMBOL cap 2080 2128 R0
SYMATTR InstName C20
SYMATTR Value {C_FILT_10K}
SYMBOL nmos_rsf015n06 2048 2240 R0
SYMATTR InstName M13
SYMBOL nmos_rsf015n06 2208 2240 R0
SYMATTR InstName M14
SYMBOL nmos_rsf015n06 2368 2240 R0
SYMATTR InstName M15
SYMBOL nmos_rsf015n06 2528 2240 R0
SYMATTR InstName M16
SYMBOL voltage 1888 2384 R0
WINDOW 123 0 0 Left 2
WINDOW 39 0 0 Left 2
SYMATTR InstName V10
SYMATTR Value 0
TEXT -152 1040 Left 2 !;.ac dec 5 10 100Meg
TEXT 664 1336 Left 2 !.model SW SW(Ron=1 Roff=1Meg Vt=.5 Vh=-.4)
TEXT 208 1256 Left 2 !;.param FREQ_TEST = {1Meg}
TEXT 1608 216 Left 2 ;1 / (2 * pi * (100 ohm) * (47 nF)) = 33.8627538 kilohertz\n1 / (2 * pi * (24.9 kiloohm) * (470 nF)) = 13.5994995 hertz\n1 / (2 * pi * (24.9 kiloohm) * (47 nF)) = 135.994995 hertz\n1 / (2 * pi * (24.9 kiloohm) * (1 pF)) = 6.39176478 megahertz\n1 / (2 * pi * (24.9 kiloohm) * (0.47 pF)) = 13.5994995 megahertz\n1 / (2 * pi * (24.9 ohm) * (100 pF)) = 63.9176478 megahertz\n1 / (2 * pi * (24.9 ohm) * (470 pF)) = 13.5994995 megahertz\n1 / (2 * pi * (24.9 ohm) * (4.7 nF)) = 1.35994995 megahertz\n1 / (2 * pi * (24.9 ohm) * (47 nF)) = 135.994995 kilohertz\n1 / (2 * pi * (24.9 ohm) * (470 nF)) = 13.5994995 kilohertz\n1 / (2 * pi * (24.9 ohm) * (100 nF)) = 63.9176478 kilohertz\n1 / (2 * pi * (24.9 ohm) * (47 uF)) = 135.994995 hertz\n1 / (2 * pi * (500 ohm) * (1000 nF)) = 318.309886 hertz\n1 / (2 * pi * (500 ohm) * (100 nF)) = 3.18309886 kilohertz
TEXT 240 1656 Left 2 ;*8f-4level\n--      --\n  -    -\n   -  -\n    --
TEXT 208 1312 Left 2 !.param PERIOD_8F = {1/{FREQ_TEST}/8}
TEXT 208 1288 Left 2 !.param PERIOD_F = {1/{FREQ_TEST}}
TEXT 216 1208 Left 2 !;.step param FREQ_TEST list 100k 1Meg
TEXT -32 1176 Left 2 !.tran 0.5m
TEXT 216 1176 Left 2 !.step param FREQ_TEST list 10k 100k 1Meg 10Meg
TEXT 2120 768 Left 2 !.param C_FILT_100K={47n}
TEXT 2120 736 Left 2 !.param C_FILT_1M={4.7n}
TEXT 2120 704 Left 2 !.param C_FILT_10M={470p}
TEXT 2120 800 Left 2 !.param C_FILT_10K={470n}
TEXT 1384 1464 Left 2 !.param V_CTRL_C_FILT_1M={3.3V}
