0.000E+00	0.02
5.000E-08	0.02
5.250E-08	0
1.000E-07	0
1.025E-07	0.02
2.000E-07	0.02
2.025E-07	0.01917
2.050E-07	0.01834
2.075E-07	0.01751
2.100E-07	0.01668
2.125E-07	0.01585
2.150E-07	0.01502
2.175E-07	0.01419
2.200E-07	0.01336
2.225E-07	0.01253
2.250E-07	0.0117
2.275E-07	0.01087
2.300E-07	0.01004
2.325E-07	0.00921
2.350E-07	0.00838
2.375E-07	0.00755
2.400E-07	0.00672
2.425E-07	0.00589
2.450E-07	0.00506
2.475E-07	0.00423
2.500E-07	0.0034
2.525E-07	0.00257
2.550E-07	0.00174
2.575E-07	0.00091
2.600E-07	8E-05
2.625E-07	0
3.000E-07	0
3.025E-07	8E-05
3.050E-07	0.00091
3.075E-07	0.00174
3.100E-07	0.00257
3.125E-07	0.0034
3.150E-07	0.00423
3.175E-07	0.00506
3.200E-07	0.00589
3.225E-07	0.00672
3.250E-07	0.00755
3.275E-07	0.00838
3.300E-07	0.00921
3.325E-07	0.01004
3.350E-07	0.01087
3.375E-07	0.0117
3.400E-07	0.01253
3.425E-07	0.01336
3.450E-07	0.01419
3.475E-07	0.01502
3.500E-07	0.01585
3.525E-07	0.01668
3.550E-07	0.01751
3.575E-07	0.01834
3.600E-07	0.01917
3.625E-07	0.02
5.000E-07	0.02
5.025E-07	0.01917
5.050E-07	0.01834
5.075E-07	0.01751
5.100E-07	0.01668
5.125E-07	0.01585
5.150E-07	0.01502
5.175E-07	0.01419
5.200E-07	0.01336
5.225E-07	0.01253
5.250E-07	0.0117
5.275E-07	0.01087
5.300E-07	0.01004
5.325E-07	0.01
6.000E-07	0.01
6.025E-07	0.01004
6.050E-07	0.01087
6.075E-07	0.0117
6.100E-07	0.01253
6.125E-07	0.01336
6.150E-07	0.01419
6.175E-07	0.01502
6.200E-07	0.01585
6.225E-07	0.01668
6.250E-07	0.01751
6.275E-07	0.01834
6.300E-07	0.01917
6.325E-07	0.02
8.000E-07	0.02
8.025E-07	0.01917
8.050E-07	0.01834
8.075E-07	0.01751
8.100E-07	0.01668
8.125E-07	0.01585
8.150E-07	0.01502
8.175E-07	0.015
9.000E-07	0.015
9.025E-07	0.01502
9.050E-07	0.01585
9.075E-07	0.01668
9.100E-07	0.01751
9.125E-07	0.01834
9.150E-07	0.01917
9.175E-07	0.02
1.000E-06	0.02
