Version 4
SHEET 1 1188 680
WIRE -240 -208 -288 -208
WIRE -128 -208 -160 -208
WIRE -96 -208 -128 -208
WIRE 32 -208 -16 -208
WIRE 176 -208 128 -208
WIRE 288 -208 256 -208
WIRE 320 -208 288 -208
WIRE 448 -208 400 -208
WIRE -128 -176 -128 -208
WIRE 288 -176 288 -208
WIRE 16 -80 0 -80
WIRE 208 -80 80 -80
WIRE 0 0 0 -80
WIRE 208 0 208 -80
WIRE 208 0 80 0
WIRE 432 0 416 0
WIRE 608 0 512 0
WIRE 704 0 688 0
WIRE 720 0 704 0
WIRE 832 0 800 0
WIRE 896 0 832 0
WIRE 992 0 976 0
WIRE 704 48 704 0
WIRE -224 112 -272 112
WIRE 0 112 0 0
WIRE 0 112 -144 112
WIRE 80 112 0 112
WIRE 832 112 832 0
WIRE 848 112 832 112
WIRE 208 128 208 0
WIRE 304 128 208 128
WIRE 416 128 416 0
WIRE 416 128 384 128
WIRE -272 144 -272 112
WIRE 992 144 992 0
WIRE 992 144 976 144
WIRE 1024 144 992 144
WIRE 1168 144 1104 144
WIRE 416 160 416 128
WIRE 480 160 416 160
WIRE 608 176 608 0
WIRE 608 176 576 176
WIRE 688 176 608 176
WIRE 816 176 768 176
WIRE 848 176 816 176
WIRE 1168 176 1168 144
WIRE 272 192 208 192
WIRE 416 192 352 192
WIRE 480 192 416 192
WIRE -224 208 -272 208
WIRE 0 208 -144 208
WIRE 80 208 0 208
WIRE 816 224 816 176
WIRE -272 240 -272 208
WIRE 416 240 416 192
WIRE 1168 288 1168 256
WIRE 0 320 0 208
WIRE 208 320 208 192
WIRE 208 320 80 320
WIRE 816 336 816 304
WIRE 416 368 416 320
WIRE 0 400 0 320
WIRE 16 400 0 400
WIRE 208 400 208 320
WIRE 208 400 80 400
FLAG -272 144 0
FLAG -272 240 0
FLAG 416 368 0
FLAG 704 48 0
FLAG 816 336 0
FLAG 1168 288 0
FLAG -128 -176 0
FLAG 288 -176 0
FLAG -288 -208 vcc
FLAG 32 -208 vee
FLAG 128 -208 hvcc
FLAG 448 -208 hvee
FLAG 144 80 vcc
FLAG 144 240 vcc
FLAG 512 128 vcc
FLAG 512 272 vcc
FLAG 960 96 vcc
FLAG 960 192 vcc
SYMBOL AutoGenerated\\ad8138 128 144 R0
SYMATTR InstName U1
SYMBOL AutoGenerated\\AD8009an 512 176 R0
SYMATTR InstName U2
SYMBOL AutoGenerated\\ADA4870 912 144 R0
SYMATTR InstName U3
SYMBOL res 96 -16 R90
WINDOW 0 0 56 VBottom 2
WINDOW 3 32 56 VTop 2
SYMATTR InstName R1
SYMATTR Value 50
SYMBOL res 96 304 R90
WINDOW 0 0 56 VBottom 2
WINDOW 3 32 56 VTop 2
SYMATTR InstName R2
SYMATTR Value 50
SYMBOL res 400 112 R90
WINDOW 0 0 56 VBottom 2
WINDOW 3 32 56 VTop 2
SYMATTR InstName R3
SYMBOL res 368 176 R90
WINDOW 0 0 56 VBottom 2
WINDOW 3 32 56 VTop 2
SYMATTR InstName R4
SYMBOL res 432 336 R180
WINDOW 0 36 76 Left 2
WINDOW 3 36 40 Left 2
SYMATTR InstName R5
SYMBOL res 416 16 R270
WINDOW 0 32 56 VTop 2
WINDOW 3 0 56 VBottom 2
SYMATTR InstName R6
SYMBOL res 704 16 R270
WINDOW 0 32 56 VTop 2
WINDOW 3 0 56 VBottom 2
SYMATTR InstName R7
SYMBOL res 880 16 R270
WINDOW 0 32 56 VTop 2
WINDOW 3 0 56 VBottom 2
SYMATTR InstName R8
SYMBOL res 672 192 R270
WINDOW 0 32 56 VTop 2
WINDOW 3 0 56 VBottom 2
SYMATTR InstName R9
SYMBOL res 800 208 R0
SYMATTR InstName R10
SYMBOL res 1120 128 R90
WINDOW 0 0 56 VBottom 2
WINDOW 3 32 56 VTop 2
SYMATTR InstName R11
SYMBOL res 1184 272 R180
WINDOW 0 36 76 Left 2
WINDOW 3 36 40 Left 2
SYMATTR InstName R12
SYMBOL cap 80 -96 R90
WINDOW 0 0 32 VBottom 2
WINDOW 3 32 32 VTop 2
SYMATTR InstName C1
SYMATTR Value 1p
SYMBOL cap 80 384 R90
WINDOW 0 0 32 VBottom 2
WINDOW 3 32 32 VTop 2
SYMATTR InstName C2
SYMATTR Value 1p
SYMBOL current -224 112 R270
WINDOW 0 32 40 VTop 2
WINDOW 3 -32 40 VBottom 2
WINDOW 123 0 0 Left 0
WINDOW 39 0 0 Left 0
SYMATTR InstName I1
SYMATTR Value PULSE(0 20m 20n 20n 20n 100n 240n 10)
SYMBOL current -224 208 R270
WINDOW 0 32 40 VTop 2
WINDOW 3 -32 40 VBottom 2
WINDOW 123 0 0 Left 0
WINDOW 39 0 0 Left 0
SYMATTR InstName I2
SYMATTR Value PULSE(20m 0 20n 20n 20n 100n 240n 10)
SYMBOL voltage -256 -208 R270
WINDOW 0 32 56 VTop 2
WINDOW 3 -32 56 VBottom 2
SYMATTR InstName V1
SYMATTR Value 5
SYMBOL voltage -112 -208 R270
WINDOW 0 32 56 VTop 2
WINDOW 3 -32 56 VBottom 2
SYMATTR InstName V2
SYMATTR Value 5
SYMBOL voltage 160 -208 R270
WINDOW 0 32 56 VTop 2
WINDOW 3 -32 56 VBottom 2
SYMATTR InstName V3
SYMATTR Value 20
SYMBOL voltage 304 -208 R270
WINDOW 0 32 56 VTop 2
WINDOW 3 -32 56 VBottom 2
SYMATTR InstName V4
SYMATTR Value 20
