Version 4
SHEET 1 2372 1856
WIRE -240 -160 -288 -160
WIRE -608 -144 -640 -144
WIRE -496 -144 -528 -144
WIRE -464 -144 -496 -144
WIRE -320 -144 -384 -144
WIRE -240 -144 -240 -160
WIRE -128 -128 -160 -128
WIRE -496 -112 -496 -144
WIRE -288 -112 -288 -160
WIRE -128 -112 -128 -128
WIRE -640 -96 -640 -144
WIRE -160 -48 -160 -128
WIRE 240 -48 160 -48
WIRE 368 -48 304 -48
WIRE 1680 -32 1632 -32
WIRE 1792 -32 1760 -32
WIRE 1872 -32 1792 -32
WIRE 2000 -32 1952 -32
WIRE 1200 -16 1136 -16
WIRE 1344 -16 1280 -16
WIRE 1392 -16 1344 -16
WIRE 1520 -16 1472 -16
WIRE 1136 0 1136 -16
WIRE 1632 0 1632 -32
WIRE -496 48 -496 -32
WIRE -448 48 -496 48
WIRE -400 48 -432 48
WIRE -320 48 -320 -144
WIRE -320 48 -368 48
WIRE -288 48 -288 -48
WIRE -288 48 -320 48
WIRE -208 48 -288 48
WIRE -160 48 -160 32
WIRE -160 48 -208 48
WIRE -32 48 -160 48
WIRE 32 48 -32 48
WIRE 160 48 160 -48
WIRE 160 48 112 48
WIRE 192 48 160 48
WIRE 368 48 368 -48
WIRE 368 48 272 48
WIRE -496 96 -496 48
WIRE -208 96 -208 48
WIRE 608 96 592 96
WIRE 720 96 688 96
WIRE 752 96 720 96
WIRE 880 96 832 96
WIRE 1792 96 1792 -32
WIRE 1824 96 1792 96
WIRE 1888 96 1888 32
WIRE 368 128 368 48
WIRE 1424 128 1424 80
WIRE 1520 128 1520 -16
WIRE 2000 128 2000 -32
WIRE 2000 128 1952 128
WIRE 2032 128 2000 128
WIRE 2144 128 2112 128
WIRE 2160 128 2144 128
WIRE 1344 144 1344 -16
WIRE 1392 144 1344 144
WIRE 1408 144 1392 144
WIRE 2160 144 2160 128
WIRE 272 160 272 144
WIRE 1520 160 1520 128
WIRE 1520 160 1488 160
WIRE 1632 160 1520 160
WIRE 1760 160 1712 160
WIRE 1824 160 1760 160
WIRE 160 176 160 48
WIRE 240 176 160 176
WIRE 368 176 368 128
WIRE 448 176 368 176
WIRE 592 176 592 96
WIRE 592 176 528 176
WIRE 880 176 880 96
WIRE 1200 176 880 176
WIRE 1312 176 1280 176
WIRE 1392 176 1312 176
WIRE 1920 176 1920 144
WIRE 1952 176 1920 176
WIRE 336 192 304 192
WIRE 368 192 368 176
WIRE 368 192 336 192
WIRE -496 208 -544 208
WIRE -448 208 -496 208
WIRE -320 208 -368 208
WIRE -288 208 -320 208
WIRE -208 208 -208 160
WIRE -208 208 -288 208
WIRE -160 208 -208 208
WIRE -32 208 -160 208
WIRE 32 208 -32 208
WIRE 192 208 112 208
WIRE 240 208 192 208
WIRE -160 240 -160 208
WIRE 592 240 592 176
WIRE 720 240 720 96
WIRE 880 240 880 176
WIRE 1888 240 1888 160
WIRE 192 256 192 208
WIRE 272 256 272 224
WIRE 1424 256 1424 192
WIRE 1760 256 1760 160
WIRE 2160 256 2160 224
WIRE -544 272 -544 208
WIRE -288 272 -288 208
WIRE 1312 272 1312 176
WIRE -496 336 -496 208
WIRE 592 336 592 304
WIRE 720 336 720 304
WIRE 880 336 880 304
WIRE -288 368 -288 336
WIRE -160 368 -160 320
WIRE 192 368 192 336
WIRE 1312 400 1312 352
WIRE 1760 400 1760 336
WIRE -608 464 -656 464
WIRE -496 464 -496 416
WIRE -496 464 -528 464
WIRE -464 464 -496 464
WIRE -320 464 -320 208
WIRE -320 464 -384 464
WIRE -656 496 -656 464
WIRE 64 1168 16 1168
WIRE -304 1184 -336 1184
WIRE -192 1184 -224 1184
WIRE -160 1184 -192 1184
WIRE -16 1184 -80 1184
WIRE 64 1184 64 1168
WIRE 176 1200 144 1200
WIRE -192 1216 -192 1184
WIRE 16 1216 16 1168
WIRE 176 1216 176 1200
WIRE -336 1232 -336 1184
WIRE 576 1264 560 1264
WIRE 704 1264 656 1264
WIRE 144 1280 144 1200
WIRE 1664 1344 1664 1312
WIRE 1872 1344 1872 1312
WIRE -192 1376 -192 1296
WIRE -144 1376 -192 1376
WIRE -96 1376 -128 1376
WIRE -16 1376 -16 1184
WIRE -16 1376 -64 1376
WIRE 16 1376 16 1280
WIRE 16 1376 -16 1376
WIRE 96 1376 16 1376
WIRE 144 1376 144 1360
WIRE 144 1376 96 1376
WIRE 352 1376 144 1376
WIRE 656 1376 656 1328
WIRE 912 1376 800 1376
WIRE 352 1408 352 1376
WIRE 384 1408 352 1408
WIRE 448 1408 384 1408
WIRE 560 1408 560 1264
WIRE 560 1408 528 1408
WIRE 608 1408 560 1408
WIRE 704 1408 704 1264
WIRE -192 1424 -192 1376
WIRE 96 1424 96 1376
WIRE 800 1424 800 1376
WIRE 800 1424 768 1424
WIRE 832 1424 800 1424
WIRE 848 1424 832 1424
WIRE 912 1424 912 1376
WIRE 608 1456 240 1456
WIRE 1664 1456 1664 1424
WIRE 1664 1456 1568 1456
WIRE 1872 1456 1872 1424
WIRE 1872 1456 1776 1456
WIRE 1568 1472 1568 1456
WIRE 1776 1472 1776 1456
WIRE 800 1488 768 1488
WIRE 832 1488 800 1488
WIRE 848 1488 832 1488
WIRE 1664 1488 1664 1456
WIRE 1872 1488 1872 1456
WIRE 384 1504 352 1504
WIRE 448 1504 384 1504
WIRE 560 1504 528 1504
WIRE 608 1504 560 1504
WIRE 240 1520 240 1456
WIRE -192 1536 -240 1536
WIRE -144 1536 -192 1536
WIRE -16 1536 -64 1536
WIRE 16 1536 -16 1536
WIRE 96 1536 96 1488
WIRE 96 1536 16 1536
WIRE 144 1536 96 1536
WIRE 352 1536 352 1504
WIRE 352 1536 144 1536
WIRE 800 1536 800 1488
WIRE 912 1536 912 1504
WIRE 912 1536 800 1536
WIRE 144 1568 144 1536
WIRE 656 1584 656 1536
WIRE -240 1600 -240 1536
WIRE 16 1600 16 1536
WIRE 1664 1600 1664 1568
WIRE 1872 1600 1872 1568
WIRE 240 1648 240 1600
WIRE 560 1648 560 1504
WIRE 576 1648 560 1648
WIRE 704 1648 704 1504
WIRE 704 1648 656 1648
WIRE -192 1664 -192 1536
WIRE 16 1696 16 1664
WIRE 144 1696 144 1648
WIRE -304 1792 -352 1792
WIRE -192 1792 -192 1744
WIRE -192 1792 -224 1792
WIRE -160 1792 -192 1792
WIRE -16 1792 -16 1536
WIRE -16 1792 -80 1792
WIRE -352 1824 -352 1792
FLAG 1568 1472 0
FLAG 1664 1312 vcc
FLAG 272 144 vcc
FLAG 1664 1600 vee
FLAG 272 256 vee
FLAG 192 368 0
FLAG -160 368 0
FLAG -128 -112 0
FLAG -496 96 0
FLAG -544 272 0
FLAG -240 -144 0
FLAG -288 368 0
FLAG -640 -96 0
FLAG -656 496 0
FLAG 592 336 0
FLAG 720 336 0
FLAG 880 336 0
FLAG 1424 80 vcc
FLAG 1424 256 vee
FLAG 1136 0 0
FLAG 1888 240 vee
FLAG 1888 32 vcc
FLAG 1952 176 vcc
FLAG 2160 256 0
FLAG 1632 0 0
FLAG 656 1328 vp5
FLAG 656 1584 vn5
FLAG 384 1504 n
FLAG 384 1408 p
FLAG 832 1424 nn
FLAG 832 1488 pp
FLAG 240 1648 0
FLAG 1776 1472 0
FLAG 1872 1312 vp5
FLAG 1872 1600 vn5
FLAG 1312 400 0
FLAG 368 128 s1
FLAG 1520 128 s2
FLAG -32 48 n1
FLAG -32 208 p1
FLAG 144 1696 0
FLAG 176 1216 0
FLAG -192 1424 0
FLAG -240 1600 0
FLAG 64 1184 0
FLAG 16 1696 0
FLAG -336 1232 0
FLAG -352 1824 0
FLAG 1760 400 0
FLAG 2144 128 out
DATAFLAG 1056 176 ""
DATAFLAG 432 176 ""
DATAFLAG 1296 176 ""
DATAFLAG 160 208 ""
DATAFLAG -64 208 ""
DATAFLAG -80 48 ""
DATAFLAG 160 144 ""
SYMBOL res 288 32 R90
WINDOW 0 0 56 VBottom 2
WINDOW 3 32 56 VTop 2
SYMATTR InstName R1
SYMATTR Value 300
SYMBOL res 128 32 R90
WINDOW 0 0 56 VBottom 2
WINDOW 3 32 56 VTop 2
SYMATTR InstName R2
SYMATTR Value 300
SYMBOL res 128 192 R90
WINDOW 0 0 56 VBottom 2
WINDOW 3 32 56 VTop 2
SYMATTR InstName R3
SYMATTR Value 300
SYMBOL res -144 336 R180
WINDOW 0 36 76 Left 2
WINDOW 3 36 40 Left 2
SYMATTR InstName R4
SYMATTR Value 51.1
SYMBOL res -144 48 R180
WINDOW 0 36 76 Left 2
WINDOW 3 36 40 Left 2
SYMATTR InstName R5
SYMATTR Value 51.1
SYMBOL res 208 352 R180
WINDOW 0 36 76 Left 2
WINDOW 3 36 40 Left 2
SYMATTR InstName R6
SYMATTR Value 300
SYMBOL current -448 48 R270
WINDOW 0 -32 40 VBottom 2
WINDOW 3 32 40 VTop 2
WINDOW 123 0 0 Left 0
WINDOW 39 0 0 Left 0
SYMATTR InstName I1
SYMATTR Value PULSE(0 20m 10n 60n 60n 100n 320n 10)
SYMBOL voltage 1664 1328 R0
WINDOW 123 0 0 Left 0
WINDOW 39 0 0 Left 0
SYMATTR InstName V1
SYMATTR Value 20
SYMBOL voltage 1664 1472 R0
WINDOW 123 0 0 Left 0
WINDOW 39 0 0 Left 0
SYMATTR InstName V2
SYMATTR Value 20
SYMBOL AutoGenerated\\AD8009an 272 192 R0
SYMATTR InstName U1
SYMBOL current -448 208 R270
WINDOW 0 -32 40 VBottom 2
WINDOW 3 32 40 VTop 2
WINDOW 123 0 0 Left 0
WINDOW 39 0 0 Left 0
SYMATTR InstName I2
SYMATTR Value PULSE(20m 0 10n 60n 60n 100n 320n 10)
SYMBOL cap -224 96 R0
SYMATTR InstName C8
SYMATTR Value 82p
SYMBOL cap -304 -112 R0
SYMATTR InstName C9
SYMATTR Value 10p
SYMBOL cap -304 272 R0
SYMATTR InstName C10
SYMATTR Value 10p
SYMBOL current -608 -144 R270
WINDOW 0 32 40 VTop 2
WINDOW 3 -32 40 VBottom 2
WINDOW 123 4 40 Left 2
WINDOW 39 0 0 Left 0
SYMATTR InstName I3
SYMATTR Value 1m
SYMBOL current -608 464 R270
WINDOW 0 32 40 VTop 2
WINDOW 3 -32 40 VBottom 2
SYMATTR InstName I4
SYMATTR Value 1m
SYMBOL res -512 -128 R0
SYMATTR InstName R7
SYMATTR Value 499
SYMBOL res -368 -160 R90
WINDOW 0 0 56 VBottom 2
WINDOW 3 32 56 VTop 2
SYMATTR InstName R8
SYMATTR Value 499
SYMBOL res -368 448 R90
WINDOW 0 0 56 VBottom 2
WINDOW 3 32 56 VTop 2
SYMATTR InstName R9
SYMATTR Value 499
SYMBOL res -480 432 R180
WINDOW 0 36 76 Left 2
WINDOW 3 36 40 Left 2
SYMATTR InstName R10
SYMATTR Value 499
SYMBOL cap 608 304 R180
WINDOW 0 24 56 Left 2
WINDOW 3 24 8 Left 2
SYMATTR InstName C4
SYMATTR Value 13p
SYMBOL cap 736 304 R180
WINDOW 0 24 56 Left 2
WINDOW 3 24 8 Left 2
SYMATTR InstName C5
SYMATTR Value 62p
SYMBOL cap 896 304 R180
WINDOW 0 24 56 Left 2
WINDOW 3 24 8 Left 2
SYMATTR InstName C6
SYMATTR Value 180p
SYMBOL ind 592 112 R270
WINDOW 0 32 56 VTop 2
WINDOW 3 5 56 VBottom 2
SYMATTR InstName L1
SYMATTR Value 100n
SYMBOL ind 736 112 R270
WINDOW 0 32 56 VTop 2
WINDOW 3 5 56 VBottom 2
SYMATTR InstName L2
SYMATTR Value 220n
SYMBOL AutoGenerated\\AD8009an 1424 160 R0
SYMATTR InstName U2
SYMBOL res 1488 -32 R90
WINDOW 0 0 56 VBottom 2
WINDOW 3 32 56 VTop 2
SYMATTR InstName R11
SYMATTR Value 301
SYMBOL res 1296 -32 R90
WINDOW 0 0 56 VBottom 2
WINDOW 3 32 56 VTop 2
SYMATTR InstName R12
SYMATTR Value 100
SYMBOL AutoGenerated\\ADA4870 1888 128 R0
SYMATTR InstName U3
SYMBOL res 1776 -48 R90
WINDOW 0 0 56 VBottom 2
WINDOW 3 32 56 VTop 2
SYMATTR InstName R14
SYMATTR Value 200
SYMBOL res 1968 -48 R90
WINDOW 0 0 56 VBottom 2
WINDOW 3 32 56 VTop 2
SYMATTR InstName R15
SYMATTR Value 1.2k
SYMBOL res 2144 128 R0
SYMATTR InstName R19
SYMATTR Value 50
SYMBOL res 1296 160 R90
WINDOW 0 0 56 VBottom 2
WINDOW 3 32 56 VTop 2
SYMATTR InstName R20
SYMATTR Value 0
SYMBOL cap 304 -64 R90
WINDOW 0 0 32 VBottom 2
WINDOW 3 32 32 VTop 2
SYMATTR InstName C11
SYMATTR Value 0
SYMBOL AutoGenerated\\ADA4938 656 1408 R0
SYMATTR InstName U4
SYMBOL res 544 1392 R90
WINDOW 0 0 56 VBottom 2
WINDOW 3 32 56 VTop 2
SYMATTR InstName R13
SYMATTR Value 120
SYMBOL res 672 1248 R90
WINDOW 0 0 56 VBottom 2
WINDOW 3 32 56 VTop 2
SYMATTR InstName R16
SYMATTR Value 200
SYMBOL res 544 1488 R90
WINDOW 0 0 56 VBottom 2
WINDOW 3 32 56 VTop 2
SYMATTR InstName R17
SYMATTR Value 120
SYMBOL res 672 1632 R90
WINDOW 0 0 56 VBottom 2
WINDOW 3 32 56 VTop 2
SYMATTR InstName R21
SYMATTR Value 200
SYMBOL res 1728 144 R90
WINDOW 0 0 56 VBottom 2
WINDOW 3 32 56 VTop 2
SYMATTR InstName R24
SYMATTR Value 200
SYMBOL voltage 240 1504 R0
SYMATTR InstName V3
SYMATTR Value 0
SYMBOL voltage 1872 1328 R0
WINDOW 123 0 0 Left 0
WINDOW 39 0 0 Left 0
SYMATTR InstName V4
SYMATTR Value 5
SYMBOL voltage 1872 1472 R0
WINDOW 123 0 0 Left 0
WINDOW 39 0 0 Left 0
SYMATTR InstName V5
SYMATTR Value 5
SYMBOL res 896 1408 R0
SYMATTR InstName R18
SYMATTR Value 1k
SYMBOL res 1296 256 R0
SYMATTR InstName R22
SYMATTR Value 51.1
SYMBOL res 544 160 R90
WINDOW 0 0 56 VBottom 2
WINDOW 3 32 56 VTop 2
SYMATTR InstName R23
SYMATTR Value 46.4
SYMBOL res 160 1664 R180
WINDOW 0 36 76 Left 2
WINDOW 3 36 40 Left 2
SYMATTR InstName R25
SYMATTR Value 50
SYMBOL res 160 1376 R180
WINDOW 0 36 76 Left 2
WINDOW 3 36 40 Left 2
SYMATTR InstName R26
SYMATTR Value 50
SYMBOL current -144 1376 R270
WINDOW 0 -32 40 VBottom 2
WINDOW 3 32 40 VTop 2
WINDOW 123 0 0 Left 0
WINDOW 39 0 0 Left 0
SYMATTR InstName I5
SYMATTR Value PULSE(0 20m 10n 60n 60n 100n 320n 10)
SYMBOL current -144 1536 R270
WINDOW 0 -32 40 VBottom 2
WINDOW 3 32 40 VTop 2
WINDOW 123 0 0 Left 0
WINDOW 39 0 0 Left 0
SYMATTR InstName I6
SYMATTR Value PULSE(20m 0 10n 60n 60n 100n 320n 10)
SYMBOL cap 80 1424 R0
SYMATTR InstName C1
SYMATTR Value 82p
SYMBOL cap 0 1216 R0
SYMATTR InstName C2
SYMATTR Value 10p
SYMBOL cap 0 1600 R0
SYMATTR InstName C3
SYMATTR Value 10p
SYMBOL current -304 1184 R270
WINDOW 0 32 40 VTop 2
WINDOW 3 -32 40 VBottom 2
WINDOW 123 4 40 Left 2
WINDOW 39 0 0 Left 0
SYMATTR InstName I7
SYMATTR Value 1m
SYMBOL current -304 1792 R270
WINDOW 0 32 40 VTop 2
WINDOW 3 -32 40 VBottom 2
SYMATTR InstName I8
SYMATTR Value 1m
SYMBOL res -208 1200 R0
SYMATTR InstName R27
SYMATTR Value 499
SYMBOL res -64 1168 R90
WINDOW 0 0 56 VBottom 2
WINDOW 3 32 56 VTop 2
SYMATTR InstName R28
SYMATTR Value 499
SYMBOL res -64 1776 R90
WINDOW 0 0 56 VBottom 2
WINDOW 3 32 56 VTop 2
SYMATTR InstName R29
SYMATTR Value 499
SYMBOL res -176 1760 R180
WINDOW 0 36 76 Left 2
WINDOW 3 36 40 Left 2
SYMATTR InstName R30
SYMATTR Value 499
SYMBOL res 1744 240 R0
SYMATTR InstName R31
SYMATTR Value 1.2k
SYMBOL res 2128 112 R90
WINDOW 0 0 56 VBottom 2
WINDOW 3 32 56 VTop 2
SYMATTR InstName R32
SYMATTR Value 0
TEXT 152 -184 Left 2 !;.ac oct 2 1k 100k\n.tran 1us
