0 0
2.5e-09 0
5e-09 0
7.500000000000001e-09 0
1e-08 0
1.25e-08 0
1.5e-08 0
1.75e-08 0
2e-08 0
2.25e-08 0
2.5e-08 0
2.75e-08 0
3e-08 0
3.25e-08 0
3.5e-08 0
3.75e-08 0
4e-08 0
4.25e-08 0
4.5e-08 0
4.75e-08 0
5e-08 0
5.25e-08 0
5.5e-08 0
5.75e-08 0
6.000000000000001e-08 0
6.25e-08 0
6.5e-08 0
6.75e-08 0
7e-08 0
7.250000000000001e-08 0
7.5e-08 0
7.75e-08 0
8e-08 0
8.25e-08 0
8.500000000000001e-08 0
8.75e-08 0
9e-08 0
9.25e-08 0
9.5e-08 0
9.750000000000001e-08 0
1e-07 0
1.025e-07 0
1.05e-07 0
1.075e-07 0
1.1e-07 0
1.125e-07 0
1.15e-07 0
1.175e-07 0
1.2e-07 0
1.225e-07 0
1.25e-07 0
1.275e-07 0
1.3e-07 0
1.325e-07 0
1.35e-07 0
1.375e-07 0
1.4e-07 0
1.425e-07 0
1.45e-07 0
1.475e-07 0
1.5e-07 0
1.525e-07 0
1.55e-07 0
1.575e-07 0
1.6e-07 0
1.625e-07 0
1.65e-07 0
1.675e-07 0
1.7e-07 0
1.725e-07 0
1.75e-07 0
1.775e-07 0
1.8e-07 0
1.825e-07 0
1.85e-07 0
1.875e-07 0
1.9e-07 0
1.925e-07 0
1.95e-07 0
1.975e-07 0
2e-07 0
2.025e-07 0.00024993896484375
2.05e-07 0.0004998779296875
2.075e-07 0.00074981689453125
2.1e-07 0.0009997558593749999
2.125e-07 0.00125
2.15e-07 0.00149993896484375
2.175e-07 0.0017498779296875
2.2e-07 0.00199981689453125
2.225e-07 0.002249755859375
2.25e-07 0.0025
2.275e-07 0.00274993896484375
2.3e-07 0.0029998779296875
2.325e-07 0.00324981689453125
2.35e-07 0.003499755859375
2.375e-07 0.00375
2.4e-07 0.00399993896484375
2.425e-07 0.0042498779296875
2.45e-07 0.004499816894531251
2.475e-07 0.004749755859375
2.5e-07 0.005
2.525e-07 0.00524993896484375
2.55e-07 0.0054998779296875
2.575e-07 0.00574981689453125
2.6e-07 0.005999755859375
2.625e-07 0.00625
2.65e-07 0.00649993896484375
2.675e-07 0.0067498779296875
2.7e-07 0.00699981689453125
2.725e-07 0.007249755859375
2.75e-07 0.0075
2.775e-07 0.007749938964843751
2.8e-07 0.0079998779296875
2.825e-07 0.00824981689453125
2.85e-07 0.008499755859374999
2.875e-07 0.008750000000000001
2.9e-07 0.008999938964843751
2.925e-07 0.009249877929687501
2.95e-07 0.009499816894531251
2.975e-07 0.009749755859375001
3e-07 0.01
3.025e-07 0.01024993896484375
3.05e-07 0.0104998779296875
3.075e-07 0.01074981689453125
3.1e-07 0.010999755859375
3.125e-07 0.01125
3.15e-07 0.01149993896484375
3.175e-07 0.0117498779296875
3.2e-07 0.01199981689453125
3.225e-07 0.012249755859375
3.25e-07 0.0125
3.275e-07 0.01274993896484375
3.3e-07 0.0129998779296875
3.325e-07 0.01324981689453125
3.35e-07 0.013499755859375
3.375e-07 0.01375
3.4e-07 0.01399993896484375
3.425e-07 0.0142498779296875
3.45e-07 0.01449981689453125
3.475e-07 0.014749755859375
3.5e-07 0.015
3.525e-07 0.01524993896484375
3.55e-07 0.0154998779296875
3.575e-07 0.01574981689453125
3.6e-07 0.015999755859375
3.625e-07 0.01625
3.65e-07 0.01649993896484375
3.675e-07 0.0167498779296875
3.7e-07 0.01699981689453125
3.725e-07 0.017249755859375
3.75e-07 0.0175
3.775e-07 0.01774993896484375
3.8e-07 0.0179998779296875
3.825e-07 0.01824981689453125
3.85e-07 0.018499755859375
3.875e-07 0.01875
3.9e-07 0.01899993896484375
3.925e-07 0.0192498779296875
3.95e-07 0.01949981689453125
3.975e-07 0.019749755859375
4e-07 0.01999969482421875
4e-07 0.02
4.025e-07 0.02
4.05e-07 0.02
4.075e-07 0.02
4.1e-07 0.02
4.125e-07 0.02
4.15e-07 0.02
4.175e-07 0.02
4.2e-07 0.02
4.225e-07 0.02
4.25e-07 0.02
4.275e-07 0.02
4.3e-07 0.02
4.325e-07 0.02
4.35e-07 0.02
4.375e-07 0.02
4.4e-07 0.02
4.425e-07 0.02
4.45e-07 0.02
4.475e-07 0.02
4.5e-07 0.02
4.525e-07 0.02
4.55e-07 0.02
4.575e-07 0.02
4.6e-07 0.02
4.625e-07 0.02
4.65e-07 0.02
4.675e-07 0.02
4.7e-07 0.02
4.725e-07 0.02
4.75e-07 0.02
4.775e-07 0.02
4.8e-07 0.02
4.825e-07 0.02
4.85e-07 0.02
4.875e-07 0.02
4.9e-07 0.02
4.924999999999999e-07 0.02
4.949999999999999e-07 0.02
4.975e-07 0.02
5e-07 0.02
5.025e-07 0.02
5.05e-07 0.02
5.075e-07 0.02
5.1e-07 0.02
5.125e-07 0.02
5.149999999999999e-07 0.02
5.174999999999999e-07 0.02
5.2e-07 0.02
5.225e-07 0.02
5.249999999999999e-07 0.02
5.275e-07 0.02
5.3e-07 0.02
5.325e-07 0.02
5.35e-07 0.02
5.374999999999999e-07 0.02
5.4e-07 0.02
5.425e-07 0.02
5.45e-07 0.02
5.474999999999999e-07 0.02
5.5e-07 0.02
5.525e-07 0.02
5.55e-07 0.02
5.575e-07 0.02
5.599999999999999e-07 0.02
5.625e-07 0.02
5.65e-07 0.02
5.675e-07 0.02
5.7e-07 0.02
5.725e-07 0.02
5.75e-07 0.02
5.775e-07 0.02
5.8e-07 0.02
5.824999999999999e-07 0.02
5.85e-07 0.02
5.875e-07 0.02
5.9e-07 0.02
5.925e-07 0.02
5.95e-07 0.02
5.975e-07 0.02
6e-07 0.02
6.024999999999999e-07 0.01975006103515625
6.049999999999999e-07 0.0195001220703125
6.075e-07 0.01925018310546875
6.1e-07 0.019000244140625
6.125e-07 0.01875
6.15e-07 0.01850006103515625
6.175e-07 0.0182501220703125
6.2e-07 0.01800018310546875
6.225e-07 0.017750244140625
6.249999999999999e-07 0.0175
6.274999999999999e-07 0.01725006103515625
6.3e-07 0.0170001220703125
6.325e-07 0.01675018310546875
6.35e-07 0.016500244140625
6.375e-07 0.01625
6.4e-07 0.01600006103515625
6.425e-07 0.0157501220703125
6.45e-07 0.01550018310546875
6.474999999999999e-07 0.015250244140625
6.499999999999999e-07 0.015
6.525e-07 0.01475006103515625
6.55e-07 0.0145001220703125
6.575e-07 0.01425018310546875
6.6e-07 0.014000244140625
6.625e-07 0.01375
6.65e-07 0.01350006103515625
6.675e-07 0.0132501220703125
6.699999999999999e-07 0.01300018310546875
6.724999999999999e-07 0.012750244140625
6.75e-07 0.0125
6.775e-07 0.01225006103515625
6.799999999999999e-07 0.0120001220703125
6.825e-07 0.01175018310546875
6.85e-07 0.011500244140625
6.875e-07 0.01125
6.9e-07 0.01100006103515625
6.924999999999999e-07 0.0107501220703125
6.949999999999999e-07 0.01050018310546875
6.975e-07 0.010250244140625
7e-07 0.01
7.024999999999999e-07 0.00975006103515625
7.05e-07 0.0095001220703125
7.075e-07 0.00925018310546875
7.1e-07 0.009000244140625
7.125e-07 0.008750000000000001
7.149999999999999e-07 0.008500061035156251
7.174999999999999e-07 0.008250122070312501
7.2e-07 0.008000183105468749
7.225e-07 0.007750244140624999
7.249999999999999e-07 0.0075
7.275e-07 0.00725006103515625
7.3e-07 0.0070001220703125
7.325e-07 0.00675018310546875
7.35e-07 0.006500244140625
7.374999999999999e-07 0.00625
7.4e-07 0.00600006103515625
7.425e-07 0.0057501220703125
7.45e-07 0.005500183105468751
7.474999999999999e-07 0.005250244140625001
7.5e-07 0.005000000000000001
7.525e-07 0.004750061035156249
7.55e-07 0.004500122070312499
7.574999999999999e-07 0.004250183105468749
7.599999999999999e-07 0.004000244140625001
7.625e-07 0.00375
7.65e-07 0.003500061035156252
7.675e-07 0.0032501220703125
7.7e-07 0.003000183105468748
7.725e-07 0.002750244140625
7.75e-07 0.002499999999999999
7.775e-07 0.002250061035156251
7.799999999999999e-07 0.002000122070312499
7.824999999999999e-07 0.001750183105468751
7.85e-07 0.001500244140624999
7.875e-07 0.001250000000000001
7.9e-07 0.001000061035156249
7.925e-07 0.0007501220703125012
7.95e-07 0.0005001831054687496
7.975e-07 0.0002502441406250014
8e-07 3.051757812497224e-07
8e-07 0
8.024999999999999e-07 0
8.049999999999999e-07 0
8.075e-07 0
8.1e-07 0
8.124999999999999e-07 0
8.15e-07 0
8.175e-07 0
8.2e-07 0
8.225e-07 0
8.249999999999999e-07 0
8.274999999999999e-07 0
8.3e-07 0
8.325e-07 0
8.349999999999999e-07 0
8.375e-07 0
8.4e-07 0
8.425e-07 0
8.45e-07 0
8.474999999999999e-07 0
8.499999999999999e-07 0
8.525e-07 0
8.55e-07 0
8.574999999999999e-07 0
8.6e-07 0
8.625e-07 0
8.65e-07 0
8.675e-07 0
8.699999999999999e-07 0
8.724999999999999e-07 0
8.75e-07 0
8.775e-07 0
8.799999999999999e-07 0
8.825e-07 0
8.85e-07 0
8.875e-07 0
8.899999999999999e-07 0
8.924999999999999e-07 0
8.949999999999999e-07 0
8.975e-07 0
9e-07 0
9.024999999999999e-07 0
9.05e-07 0
9.075e-07 0
9.1e-07 0
9.124999999999999e-07 0
9.149999999999999e-07 0
9.174999999999999e-07 0
9.2e-07 0
9.225e-07 0
9.249999999999999e-07 0
9.275e-07 0
9.3e-07 0
9.325e-07 0
9.349999999999999e-07 0
9.374999999999999e-07 0
9.4e-07 0
9.425e-07 0
9.45e-07 0
9.474999999999999e-07 0
9.5e-07 0
9.525e-07 0
9.55e-07 0
9.574999999999999e-07 0
9.599999999999999e-07 0
9.625000000000001e-07 0
9.650000000000001e-07 0
9.675000000000001e-07 0
9.7e-07 0
9.725e-07 0
9.75e-07 0
9.775e-07 0
9.799999999999999e-07 0
9.824999999999999e-07 0
9.849999999999999e-07 0
9.874999999999999e-07 0
9.899999999999998e-07 0
9.925e-07 0
9.95e-07 0
9.975e-07 0
1e-06 0
1.0025e-06 0.00024993896484375
1.005e-06 0.0004998779296875
1.0075e-06 0.00074981689453125
1.01e-06 0.0009997558593749999
1.0125e-06 0.00125
1.015e-06 0.00149993896484375
1.0175e-06 0.0017498779296875
1.02e-06 0.00199981689453125
1.0225e-06 0.002249755859375
1.025e-06 0.0025
1.0275e-06 0.00274993896484375
1.03e-06 0.0029998779296875
1.0325e-06 0.00324981689453125
1.035e-06 0.003499755859375
1.0375e-06 0.00375
1.04e-06 0.00399993896484375
1.0425e-06 0.0042498779296875
1.045e-06 0.004499816894531251
1.0475e-06 0.004749755859375
1.05e-06 0.005
1.0525e-06 0.00524993896484375
1.055e-06 0.0054998779296875
1.0575e-06 0.00574981689453125
1.06e-06 0.005999755859375
1.0625e-06 0.00625
1.065e-06 0.00649993896484375
1.0675e-06 0.0067498779296875
1.07e-06 0.00699981689453125
1.0725e-06 0.007249755859375
1.075e-06 0.0075
1.0775e-06 0.007749938964843751
1.08e-06 0.0079998779296875
1.0825e-06 0.00824981689453125
1.085e-06 0.008499755859374999
1.0875e-06 0.008750000000000001
1.09e-06 0.008999938964843751
1.0925e-06 0.009249877929687501
1.095e-06 0.009499816894531251
1.0975e-06 0.009749755859375001
1.1e-06 0.01
1.1025e-06 0.01024993896484375
1.105e-06 0.0104998779296875
1.1075e-06 0.01074981689453125
1.11e-06 0.010999755859375
1.1125e-06 0.01125
1.115e-06 0.01149993896484375
1.1175e-06 0.0117498779296875
1.12e-06 0.01199981689453125
1.1225e-06 0.012249755859375
1.125e-06 0.0125
1.1275e-06 0.01274993896484375
1.13e-06 0.0129998779296875
1.1325e-06 0.01324981689453125
1.135e-06 0.013499755859375
1.1375e-06 0.01375
1.14e-06 0.01399993896484375
1.1425e-06 0.0142498779296875
1.145e-06 0.01449981689453125
1.1475e-06 0.014749755859375
1.15e-06 0.015
1.1525e-06 0.01524993896484375
1.155e-06 0.0154998779296875
1.1575e-06 0.01574981689453125
1.16e-06 0.015999755859375
1.1625e-06 0.01625
1.165e-06 0.01649993896484375
1.1675e-06 0.0167498779296875
1.17e-06 0.01699981689453125
1.1725e-06 0.017249755859375
1.175e-06 0.0175
1.1775e-06 0.01774993896484375
1.18e-06 0.0179998779296875
1.1825e-06 0.01824981689453125
1.185e-06 0.018499755859375
1.1875e-06 0.01875
1.19e-06 0.01899993896484375
1.1925e-06 0.0192498779296875
1.195e-06 0.01949981689453125
1.1975e-06 0.019749755859375
1.2e-06 0.01999969482421875
1.2e-06 0.02
1.2025e-06 0.02
1.205e-06 0.02
1.2075e-06 0.02
1.21e-06 0.02
1.2125e-06 0.02
1.215e-06 0.02
1.2175e-06 0.02
1.22e-06 0.02
1.2225e-06 0.02
1.225e-06 0.02
1.2275e-06 0.02
1.23e-06 0.02
1.2325e-06 0.02
1.235e-06 0.02
1.2375e-06 0.02
1.24e-06 0.02
1.2425e-06 0.02
1.245e-06 0.02
1.2475e-06 0.02
1.25e-06 0.02
1.2525e-06 0.02
1.255e-06 0.02
1.2575e-06 0.02
1.26e-06 0.02
1.2625e-06 0.02
1.265e-06 0.02
1.2675e-06 0.02
1.27e-06 0.02
1.2725e-06 0.02
1.275e-06 0.02
1.2775e-06 0.02
1.28e-06 0.02
1.2825e-06 0.02
1.285e-06 0.02
1.2875e-06 0.02
1.29e-06 0.02
1.2925e-06 0.02
1.295e-06 0.02
1.2975e-06 0.02
1.3e-06 0.02
1.3025e-06 0.02
1.305e-06 0.02
1.3075e-06 0.02
1.31e-06 0.02
1.3125e-06 0.02
1.315e-06 0.02
1.3175e-06 0.02
1.32e-06 0.02
1.3225e-06 0.02
1.325e-06 0.02
1.3275e-06 0.02
1.33e-06 0.02
1.3325e-06 0.02
1.335e-06 0.02
1.3375e-06 0.02
1.34e-06 0.02
1.3425e-06 0.02
1.345e-06 0.02
1.3475e-06 0.02
1.35e-06 0.02
1.3525e-06 0.02
1.355e-06 0.02
1.3575e-06 0.02
1.36e-06 0.02
1.3625e-06 0.02
1.365e-06 0.02
1.3675e-06 0.02
1.37e-06 0.02
1.3725e-06 0.02
1.375e-06 0.02
1.3775e-06 0.02
1.38e-06 0.02
1.3825e-06 0.02
1.385e-06 0.02
1.3875e-06 0.02
1.39e-06 0.02
1.3925e-06 0.02
1.395e-06 0.02
1.3975e-06 0.02
