%time	V(out)	I(I2)
0.000000000000000e+000	-1.032454e+001	0.000000e+000
4.499999999999999e-008	-1.032454e+001	0.000000e+000
4.501359375767248e-008	-1.032454e+001	1.812390e-005
4.503171876790247e-008	-1.032454e+001	4.228911e-005
4.506796878836244e-008	-1.032454e+001	9.061952e-005
4.514046882928238e-008	-1.032454e+001	1.872803e-004
4.532361588377850e-008	-1.032454e+001	4.314615e-004
4.537180289213890e-008	-1.032454e+001	4.957069e-004
4.541998990049930e-008	-1.032454e+001	5.599524e-004
4.546817690885970e-008	-1.032454e+001	6.241978e-004
4.551636391722010e-008	-1.032454e+001	6.884432e-004
4.556455092558050e-008	-1.032454e+001	7.526886e-004
4.561273793394090e-008	-1.032454e+001	8.169340e-004
4.566092494230130e-008	-1.032454e+001	8.811795e-004
4.578299525480130e-008	-1.032454e+001	1.043930e-003
4.602713587980130e-008	-1.032454e+001	1.369431e-003
4.627127650480130e-008	-1.032453e+001	1.694932e-003
4.651541712980130e-008	-1.032452e+001	2.020433e-003
4.675955775480130e-008	-1.032451e+001	2.345934e-003
4.700369837980130e-008	-1.032449e+001	2.671435e-003
4.724783900480130e-008	-1.032446e+001	2.996936e-003
4.740719142743656e-008	-1.032443e+001	3.209393e-003
4.751666128632364e-008	-1.032441e+001	3.355346e-003
4.761662900426547e-008	-1.032439e+001	3.488640e-003
4.771374828679301e-008	-1.032436e+001	3.618136e-003
4.786061486165523e-008	-1.032429e+001	3.813964e-003
4.801575095550506e-008	-1.032420e+001	4.020819e-003
4.819622146517404e-008	-1.032403e+001	4.261454e-003
4.838281909150459e-008	-1.032378e+001	4.510258e-003
4.859483350911697e-008	-1.032335e+001	4.792952e-003
4.882136732024561e-008	-1.032263e+001	5.095007e-003
4.906550794524561e-008	-1.032146e+001	5.420538e-003
4.930964857024561e-008	-1.031973e+001	5.746068e-003
4.955378919524561e-008	-1.031723e+001	6.071599e-003
4.999999999999999e-008	-1.031030e+001	6.666565e-003
5.036063058035714e-008	-1.030355e+001	7.147421e-003
5.072126116071427e-008	-1.028956e+001	7.628276e-003
5.108189174107142e-008	-1.026835e+001	8.109132e-003
5.144252232142856e-008	-1.023990e+001	8.589987e-003
5.180315290178571e-008	-1.020422e+001	9.070842e-003
5.216378348214284e-008	-1.016132e+001	9.551696e-003
5.252441406249999e-008	-1.011118e+001	1.003255e-002
5.300013950892856e-008	-1.002604e+001	1.066680e-002
5.347586495535713e-008	-9.913714e+000	1.130105e-002
5.395159040178571e-008	-9.774201e+000	1.193532e-002
5.442731584821427e-008	-9.607500e+000	1.256959e-002
5.490304129464285e-008	-9.413611e+000	1.320388e-002
5.537876674107142e-008	-9.192535e+000	1.383818e-002
5.585449218749999e-008	-8.944270e+000	1.447249e-002
5.609863281249999e-008	-8.803781e+000	1.479802e-002
5.634277343749999e-008	-8.655298e+000	1.512355e-002
5.683105468749999e-008	-8.334400e+000	1.577461e-002
5.707519531249999e-008	-8.162061e+000	1.610014e-002
5.731933593749999e-008	-7.982379e+000	1.642567e-002
5.750915527343749e-008	-7.838334e+000	1.667877e-002
5.758719308035713e-008	-7.777191e+000	1.678282e-002
5.766523088727678e-008	-7.715235e+000	1.688687e-002
5.774326869419642e-008	-7.652467e+000	1.699092e-002
5.782130650111607e-008	-7.588885e+000	1.709497e-002
5.789934430803571e-008	-7.524491e+000	1.719902e-002
5.797738211495536e-008	-7.459284e+000	1.730306e-002
5.805541992187500e-008	-7.393263e+000	1.740711e-002
5.825073242187500e-008	-7.224435e+000	1.766753e-002
5.849487304687500e-008	-7.007607e+000	1.799304e-002
5.898315429687500e-008	-6.553474e+000	1.864407e-002
5.912841796875000e-008	-6.412766e+000	1.883776e-002
5.927368164062500e-008	-6.269938e+000	1.903144e-002
5.941894531250000e-008	-6.124990e+000	1.922512e-002
5.956420898437500e-008	-5.977924e+000	1.941880e-002
5.970947265625000e-008	-5.828738e+000	1.961248e-002
5.985473632812500e-008	-5.677432e+000	1.980617e-002
6.000000000000000e-008	-5.524007e+000	1.999985e-002
6.007324218750000e-008	-5.445420e+000	1.999985e-002
6.017089843750000e-008	-5.339667e+000	1.999986e-002
6.036621093750000e-008	-5.125426e+000	1.999987e-002
6.061035156250001e-008	-4.853179e+000	1.999988e-002
6.085449218750002e-008	-4.575815e+000	1.999990e-002
6.109863281250002e-008	-4.293275e+000	1.999991e-002
6.134277343750003e-008	-4.005782e+000	1.999993e-002
6.158691406250003e-008	-3.713561e+000	1.999994e-002
6.183105468750004e-008	-3.416838e+000	1.999996e-002
6.207519531250005e-008	-3.115837e+000	1.999997e-002
6.231933593750005e-008	-2.811029e+000	1.999999e-002
6.250000000000000e-008	-2.583480e+000	2.000000e-002
6.267089843750000e-008	-2.365416e+000	2.000000e-002
6.286621093750001e-008	-2.114076e+000	2.000000e-002
6.311035156250001e-008	-1.797329e+000	2.000000e-002
6.335449218750002e-008	-1.477719e+000	2.000000e-002
6.359863281250002e-008	-1.155353e+000	2.000000e-002
6.384277343750003e-008	-8.305267e-001	2.000000e-002
6.408691406250004e-008	-5.035609e-001	2.000000e-002
6.436157226562505e-008	-1.339235e-001	2.000000e-002
6.438008393524801e-008	-1.089106e-001	2.000000e-002
6.439859560487099e-008	-8.389035e-002	2.000000e-002
6.441710727449395e-008	-5.886286e-002	2.000000e-002
6.443561894411691e-008	-3.382809e-002	2.000000e-002
6.445413061373988e-008	-8.786034e-003	2.000000e-002
6.447264228336285e-008	1.626330e-002	2.000000e-002
6.449115395298581e-008	4.131991e-002	2.000000e-002
6.459564941022633e-008	1.829911e-001	2.000000e-002
6.470014486746685e-008	3.247425e-001	2.000000e-002
6.480464032470736e-008	4.665740e-001	2.000000e-002
6.490913578194788e-008	6.084857e-001	2.000000e-002
6.501363123918839e-008	7.504775e-001	2.000000e-002
6.511812669642891e-008	8.925495e-001	2.000000e-002
6.522262215366943e-008	1.034702e+000	2.000000e-002
6.546676277866943e-008	1.366379e+000	2.000000e-002
6.571090340366944e-008	1.697362e+000	2.000000e-002
6.595504402866944e-008	2.027138e+000	2.000000e-002
6.619918465366945e-008	2.355187e+000	2.000000e-002
6.644332527866946e-008	2.680985e+000	2.000000e-002
6.668746590366946e-008	3.004009e+000	2.000000e-002
6.693160652866947e-008	3.323744e+000	2.000000e-002
6.717574715366947e-008	3.639688e+000	2.000000e-002
6.741988777866948e-008	3.951358e+000	2.000000e-002
6.766402840366948e-008	4.258292e+000	2.000000e-002
6.790816902866949e-008	4.560052e+000	2.000000e-002
6.815230965366950e-008	4.856228e+000	2.000000e-002
6.839645027866950e-008	5.146437e+000	2.000000e-002
6.864059090366951e-008	5.430326e+000	2.000000e-002
6.888473152866951e-008	5.707570e+000	2.000000e-002
6.912887215366952e-008	5.977875e+000	2.000000e-002
6.937301277866953e-008	6.240977e+000	2.000000e-002
6.961715340366953e-008	6.496641e+000	2.000000e-002
6.986129402866954e-008	6.744660e+000	2.000000e-002
7.034957527866955e-008	7.217090e+000	2.000000e-002
7.059371590366956e-008	7.441234e+000	2.000000e-002
7.083785652866956e-008	7.657202e+000	2.000000e-002
7.108199715366957e-008	7.864931e+000	2.000000e-002
7.132613777866957e-008	8.064384e+000	2.000000e-002
7.157027840366958e-008	8.255553e+000	2.000000e-002
7.181441902866959e-008	8.438451e+000	2.000000e-002
7.205855965366959e-008	8.613115e+000	2.000000e-002
7.230270027866960e-008	8.779608e+000	2.000000e-002
7.254684090366960e-008	8.938007e+000	2.000000e-002
7.279098152866961e-008	9.088416e+000	2.000000e-002
7.303512215366962e-008	9.230951e+000	2.000000e-002
7.327926277866962e-008	9.365748e+000	2.000000e-002
7.352340340366963e-008	9.492959e+000	2.000000e-002
7.376754402866963e-008	9.612747e+000	2.000000e-002
7.401168465366964e-008	9.725291e+000	2.000000e-002
7.425582527866965e-008	9.830779e+000	2.000000e-002
7.449996590366965e-008	9.929412e+000	2.000000e-002
7.474410652866966e-008	1.002140e+001	2.000000e-002
7.498824715366966e-008	1.010695e+001	2.000000e-002
7.523238777866967e-008	1.018629e+001	2.000000e-002
7.547652840366967e-008	1.025966e+001	2.000000e-002
7.572066902866968e-008	1.032727e+001	2.000000e-002
7.596480965366969e-008	1.038937e+001	2.000000e-002
7.620895027866969e-008	1.044619e+001	2.000000e-002
7.645309090366970e-008	1.049798e+001	2.000000e-002
7.669723152866970e-008	1.054497e+001	2.000000e-002
7.694137215366971e-008	1.058740e+001	2.000000e-002
7.718551277866972e-008	1.062550e+001	2.000000e-002
7.742965340366972e-008	1.065952e+001	2.000000e-002
7.767379402866973e-008	1.068968e+001	2.000000e-002
7.791793465366973e-008	1.071621e+001	2.000000e-002
7.816207527866974e-008	1.073934e+001	2.000000e-002
7.840621590366975e-008	1.075928e+001	2.000000e-002
7.865035652866975e-008	1.077625e+001	2.000000e-002
7.889449715366976e-008	1.079045e+001	2.000000e-002
7.913863777866976e-008	1.080210e+001	2.000000e-002
7.938277840366977e-008	1.081139e+001	2.000000e-002
7.962691902866978e-008	1.081850e+001	2.000000e-002
7.987105965366978e-008	1.082363e+001	2.000000e-002
8.011520027866979e-008	1.082694e+001	2.000000e-002
8.035934090366979e-008	1.082860e+001	2.000000e-002
8.084762215366981e-008	1.082764e+001	2.000000e-002
8.133590340366982e-008	1.082193e+001	2.000000e-002
8.182418465366983e-008	1.081257e+001	2.000000e-002
8.255660652866985e-008	1.079384e+001	2.000000e-002
8.278657402063719e-008	1.078704e+001	2.000000e-002
8.301654151260454e-008	1.078012e+001	2.000000e-002
8.324650900457188e-008	1.077309e+001	2.000000e-002
8.347647649653922e-008	1.076595e+001	2.000000e-002
8.370644398850656e-008	1.075869e+001	2.000000e-002
8.393641148047391e-008	1.075132e+001	2.000000e-002
8.416637897244125e-008	1.074384e+001	2.000000e-002
8.465466022244127e-008	1.072877e+001	2.000000e-002
8.489880084744127e-008	1.072150e+001	2.000000e-002
8.514294147244128e-008	1.071447e+001	2.000000e-002
8.538708209744128e-008	1.070770e+001	2.000000e-002
8.563122272244129e-008	1.070122e+001	2.000000e-002
8.587536334744129e-008	1.069506e+001	2.000000e-002
8.611950397244130e-008	1.068924e+001	2.000000e-002
8.636364459744131e-008	1.068377e+001	2.000000e-002
8.660778522244131e-008	1.067867e+001	2.000000e-002
8.685192584744132e-008	1.067394e+001	2.000000e-002
8.709606647244132e-008	1.066959e+001	2.000000e-002
8.734020709744133e-008	1.066564e+001	2.000000e-002
8.758434772244134e-008	1.066206e+001	2.000000e-002
8.782848834744134e-008	1.065888e+001	2.000000e-002
8.807262897244135e-008	1.065607e+001	2.000000e-002
8.831676959744135e-008	1.065364e+001	2.000000e-002
8.856091022244136e-008	1.065158e+001	2.000000e-002
8.880505084744137e-008	1.064988e+001	2.000000e-002
8.904919147244137e-008	1.064852e+001	2.000000e-002
8.929333209744138e-008	1.064751e+001	2.000000e-002
8.953747272244138e-008	1.064682e+001	2.000000e-002
8.978161334744139e-008	1.064644e+001	2.000000e-002
9.002575397244140e-008	1.064635e+001	2.000000e-002
9.026989459744140e-008	1.064655e+001	2.000000e-002
9.051403522244141e-008	1.064701e+001	2.000000e-002
9.100231647244142e-008	1.064867e+001	2.000000e-002
9.149059772244143e-008	1.065119e+001	2.000000e-002
9.197887897244144e-008	1.065445e+001	2.000000e-002
9.246716022244146e-008	1.065832e+001	2.000000e-002
9.295544147244147e-008	1.066267e+001	2.000000e-002
9.344372272244148e-008	1.066738e+001	2.000000e-002
9.393200397244149e-008	1.067235e+001	2.000000e-002
9.466442584744151e-008	1.068006e+001	2.000000e-002
9.539684772244153e-008	1.068781e+001	2.000000e-002
9.612926959744154e-008	1.069535e+001	2.000000e-002
9.661755084744156e-008	1.070016e+001	2.000000e-002
9.710583209744157e-008	1.070475e+001	2.000000e-002
9.734997272244157e-008	1.070695e+001	2.000000e-002
9.759411334744158e-008	1.070907e+001	2.000000e-002
9.783825397244159e-008	1.071112e+001	2.000000e-002
9.808239459744159e-008	1.071310e+001	2.000000e-002
9.832653522244160e-008	1.071500e+001	2.000000e-002
9.857067584744160e-008	1.071682e+001	2.000000e-002
9.881481647244161e-008	1.071855e+001	2.000000e-002
9.905895709744162e-008	1.072021e+001	2.000000e-002
9.930309772244162e-008	1.072178e+001	2.000000e-002
9.954723834744163e-008	1.072327e+001	2.000000e-002
9.979137897244163e-008	1.072467e+001	2.000000e-002
1.000355195974416e-007	1.072600e+001	2.000000e-002
1.002796602224416e-007	1.072724e+001	2.000000e-002
1.005238008474417e-007	1.072840e+001	2.000000e-002
1.007679414724417e-007	1.072948e+001	2.000000e-002
1.010120820974417e-007	1.073049e+001	2.000000e-002
1.012562227224417e-007	1.073142e+001	2.000000e-002
1.017445039724417e-007	1.073307e+001	2.000000e-002
1.022327852224417e-007	1.073443e+001	2.000000e-002
1.027210664724417e-007	1.073554e+001	2.000000e-002
1.032093477224417e-007	1.073642e+001	2.000000e-002
1.036976289724417e-007	1.073708e+001	2.000000e-002
1.044300508474418e-007	1.073772e+001	2.000000e-002
1.050000000000000e-007	1.073797e+001	2.000000e-002
1.050244140625000e-007	1.073798e+001	1.996745e-002
1.050732421875000e-007	1.073799e+001	1.990235e-002
1.051708984375000e-007	1.073801e+001	1.977215e-002
1.053913670608545e-007	1.073803e+001	1.947821e-002
1.054226320036865e-007	1.073803e+001	1.943653e-002
1.054538969465186e-007	1.073803e+001	1.939484e-002
1.054851618893507e-007	1.073804e+001	1.935316e-002
1.055164268321827e-007	1.073804e+001	1.931147e-002
1.055476917750148e-007	1.073803e+001	1.926979e-002
1.055789567178469e-007	1.073803e+001	1.922810e-002
1.056102216606789e-007	1.073803e+001	1.918642e-002
1.056712568169289e-007	1.073803e+001	1.910505e-002
1.057933271294289e-007	1.073801e+001	1.894229e-002
1.060374677544289e-007	1.073796e+001	1.861679e-002
1.062816083794289e-007	1.073789e+001	1.829129e-002
1.065257490044290e-007	1.073779e+001	1.796579e-002
1.067698896294290e-007	1.073767e+001	1.764029e-002
1.070140302544290e-007	1.073752e+001	1.731479e-002
1.072581708794290e-007	1.073736e+001	1.698929e-002
1.075000000000000e-007	1.073717e+001	1.666687e-002
1.075732421875000e-007	1.073711e+001	1.656921e-002
1.076708984375000e-007	1.073701e+001	1.643900e-002
1.078662109375000e-007	1.073679e+001	1.617857e-002
1.081103515625000e-007	1.073643e+001	1.585304e-002
1.083544921875000e-007	1.073595e+001	1.552751e-002
1.085986328125000e-007	1.073527e+001	1.520198e-002
1.088427734375000e-007	1.073429e+001	1.487645e-002
1.090869140625000e-007	1.073288e+001	1.455092e-002
1.093310546875001e-007	1.073089e+001	1.422539e-002
1.095751953125001e-007	1.072812e+001	1.389986e-002
1.098193359375001e-007	1.072443e+001	1.357433e-002
1.100000000000000e-007	1.072111e+001	1.333344e-002
1.100732421875000e-007	1.071941e+001	1.323578e-002
1.101708984375000e-007	1.071687e+001	1.310556e-002
1.103662109375000e-007	1.071089e+001	1.284514e-002
1.106103515625000e-007	1.070176e+001	1.251961e-002
1.108544921875000e-007	1.069037e+001	1.219408e-002
1.110986328125000e-007	1.067626e+001	1.186855e-002
1.113427734375000e-007	1.065904e+001	1.154302e-002
1.115869140625000e-007	1.063831e+001	1.121749e-002
1.118310546875001e-007	1.061367e+001	1.089195e-002
1.120751953125001e-007	1.058473e+001	1.056642e-002
1.122579520089286e-007	1.056079e+001	1.032274e-002
1.124407087053572e-007	1.053357e+001	1.007906e-002
1.126234654017858e-007	1.050306e+001	9.835389e-003
1.128062220982143e-007	1.046926e+001	9.591721e-003
1.129889787946429e-007	1.043217e+001	9.348058e-003
1.131717354910715e-007	1.039180e+001	9.104400e-003
1.133544921875000e-007	1.034813e+001	8.860746e-003
1.135986328125000e-007	1.028427e+001	8.535245e-003
1.138427734375000e-007	1.021372e+001	8.209744e-003
1.140869140625000e-007	1.013624e+001	7.884244e-003
1.143310546875000e-007	1.005161e+001	7.558743e-003
1.145751953125001e-007	9.959648e+000	7.233242e-003
1.148277064732143e-007	9.857344e+000	6.896574e-003
1.150802176339286e-007	9.746458e+000	6.559901e-003
1.153327287946429e-007	9.626988e+000	6.223222e-003
1.155852399553572e-007	9.498935e+000	5.886538e-003
1.158377511160715e-007	9.362300e+000	5.549848e-003
1.160902622767858e-007	9.217081e+000	5.213152e-003
1.163427734375000e-007	9.063279e+000	4.876451e-003
1.164212472098215e-007	9.014545e+000	4.771816e-003
1.164997209821429e-007	8.964834e+000	4.667181e-003
1.165781947544643e-007	8.914147e+000	4.562546e-003
1.166566685267858e-007	8.862483e+000	4.457912e-003
1.167351422991072e-007	8.809843e+000	4.353277e-003
1.168136160714286e-007	8.756226e+000	4.248642e-003
1.168920898437500e-007	8.701632e+000	4.144007e-003
1.170141601562500e-007	8.614714e+000	3.981241e-003
1.172583007812501e-007	8.435513e+000	3.655710e-003
1.175000000000000e-007	8.253302e+000	3.333435e-003
1.176177106584822e-007	8.160836e+000	3.176490e-003
1.177354213169643e-007	8.066546e+000	3.019545e-003
1.178531319754464e-007	7.970434e+000	2.862600e-003
1.179708426339286e-007	7.872497e+000	2.705655e-003
1.180885532924107e-007	7.772737e+000	2.548709e-003
1.182062639508929e-007	7.671154e+000	2.391764e-003
1.183239746093750e-007	7.567747e+000	2.234819e-003
1.185681152343750e-007	7.349148e+000	1.909303e-003
1.190563964843750e-007	6.890900e+000	1.258271e-003
1.200000000000000e-007	5.932031e+000	1.525879e-007
1.200732421875000e-007	5.853453e+000	1.481175e-007
1.201708984375000e-007	5.747713e+000	1.421571e-007
1.203662109375000e-007	5.533498e+000	1.302361e-007
1.206103515625000e-007	5.261283e+000	1.153350e-007
1.208544921875000e-007	4.983953e+000	1.004338e-007
1.210986328125000e-007	4.701447e+000	8.553266e-008
1.213427734375000e-007	4.413989e+000	7.063150e-008
1.215869140625000e-007	4.121803e+000	5.573034e-008
1.218310546875000e-007	3.825115e+000	4.082918e-008
1.220751953125000e-007	3.524149e+000	2.592802e-008
1.223193359375000e-007	3.219376e+000	1.102686e-008
1.225000000000000e-007	2.991853e+000	0.000000e+000
1.225732421875000e-007	2.898657e+000	0.000000e+000
1.226708984375000e-007	2.773812e+000	0.000000e+000
1.228662109375000e-007	2.522499e+000	0.000000e+000
1.231103515625000e-007	2.205785e+000	0.000000e+000
1.233544921875000e-007	1.886208e+000	0.000000e+000
1.235986328125000e-007	1.563873e+000	0.000000e+000
1.238427734375000e-007	1.239077e+000	0.000000e+000
1.240869140625000e-007	9.121411e-001	0.000000e+000
1.243310546875000e-007	5.834130e-001	0.000000e+000
1.246057128906250e-007	2.121468e-001	0.000000e+000
1.246321684250455e-007	1.762636e-001	0.000000e+000
1.246586239594659e-007	1.403749e-001	0.000000e+000
1.246850794938863e-007	1.044809e-001	0.000000e+000
1.247115350283068e-007	6.858141e-002	0.000000e+000
1.247379905627272e-007	3.267652e-002	0.000000e+000
1.247644460971476e-007	-3.233794e-003	0.000000e+000
1.247909016315681e-007	-3.914953e-002	0.000000e+000
1.248955248130474e-007	-1.813802e-001	0.000000e+000
1.250001479945267e-007	-3.235902e-001	0.000000e+000
1.251047711760060e-007	-4.657797e-001	0.000000e+000
1.252093943574853e-007	-6.079487e-001	0.000000e+000
1.253140175389646e-007	-7.500971e-001	0.000000e+000
1.254186407204440e-007	-8.922249e-001	0.000000e+000
1.255232639019233e-007	-1.034332e+000	0.000000e+000
1.257674045269233e-007	-1.365061e+000	0.000000e+000
1.260115451519233e-007	-1.694465e+000	0.000000e+000
1.262556857769233e-007	-2.022022e+000	0.000000e+000
1.264998264019233e-007	-2.347207e+000	0.000000e+000
1.267439670269233e-007	-2.669499e+000	0.000000e+000
1.269881076519233e-007	-2.988385e+000	0.000000e+000
1.272322482769233e-007	-3.303369e+000	0.000000e+000
1.274763889019233e-007	-3.613971e+000	0.000000e+000
1.279646701519233e-007	-4.220226e+000	0.000000e+000
1.284529514019234e-007	-4.803813e+000	0.000000e+000
1.289412326519234e-007	-5.361840e+000	0.000000e+000
1.294295139019234e-007	-5.891891e+000	0.000000e+000
1.299177951519234e-007	-6.392018e+000	0.000000e+000
1.304060764019234e-007	-6.860749e+000	0.000000e+000
1.308943576519234e-007	-7.297071e+000	0.000000e+000
1.313826389019234e-007	-7.700423e+000	0.000000e+000
1.318709201519234e-007	-8.070664e+000	0.000000e+000
1.323592014019235e-007	-8.408045e+000	0.000000e+000
1.326033420269235e-007	-8.564589e+000	0.000000e+000
1.328474826519235e-007	-8.713165e+000	0.000000e+000
1.330916232769235e-007	-8.853899e+000	0.000000e+000
1.333357639019235e-007	-8.986930e+000	0.000000e+000
1.335799045269235e-007	-9.112411e+000	0.000000e+000
1.338240451519235e-007	-9.230509e+000	0.000000e+000
1.340681857769235e-007	-9.341405e+000	0.000000e+000
1.343123264019235e-007	-9.445292e+000	0.000000e+000
1.345564670269235e-007	-9.542370e+000	0.000000e+000
1.348006076519235e-007	-9.632850e+000	0.000000e+000
1.350447482769235e-007	-9.716949e+000	0.000000e+000
1.352888889019235e-007	-9.794891e+000	0.000000e+000
1.355330295269235e-007	-9.866906e+000	0.000000e+000
1.357771701519235e-007	-9.933227e+000	0.000000e+000
1.360213107769235e-007	-9.994088e+000	0.000000e+000
1.362654514019235e-007	-1.004973e+001	0.000000e+000
1.365095920269236e-007	-1.010039e+001	0.000000e+000
1.367537326519236e-007	-1.014630e+001	0.000000e+000
1.369978732769236e-007	-1.018771e+001	0.000000e+000
1.372420139019236e-007	-1.022485e+001	0.000000e+000
1.374861545269236e-007	-1.025796e+001	0.000000e+000
1.377302951519236e-007	-1.028726e+001	0.000000e+000
1.379744357769236e-007	-1.031299e+001	0.000000e+000
1.382185764019236e-007	-1.033536e+001	0.000000e+000
1.384627170269236e-007	-1.035460e+001	0.000000e+000
1.387068576519236e-007	-1.037091e+001	0.000000e+000
1.389509982769236e-007	-1.038451e+001	0.000000e+000
1.391951389019236e-007	-1.039560e+001	0.000000e+000
1.394392795269236e-007	-1.040437e+001	0.000000e+000
1.396834201519236e-007	-1.041101e+001	0.000000e+000
1.399275607769236e-007	-1.041570e+001	0.000000e+000
1.401717014019236e-007	-1.041861e+001	0.000000e+000
1.404158420269236e-007	-1.041992e+001	0.000000e+000
1.406599826519237e-007	-1.041979e+001	0.000000e+000
1.411482639019237e-007	-1.041577e+001	0.000000e+000
1.416365451519237e-007	-1.040770e+001	0.000000e+000
1.421248264019237e-007	-1.039658e+001	0.000000e+000
1.426131076519237e-007	-1.038330e+001	0.000000e+000
1.431013889019237e-007	-1.036865e+001	0.000000e+000
1.435896701519237e-007	-1.035329e+001	0.000000e+000
1.440779514019237e-007	-1.033779e+001	0.000000e+000
1.443220920269237e-007	-1.033014e+001	0.000000e+000
1.445662326519238e-007	-1.032262e+001	0.000000e+000
1.448103732769238e-007	-1.031528e+001	0.000000e+000
1.450545139019238e-007	-1.030816e+001	0.000000e+000
1.452986545269238e-007	-1.030128e+001	0.000000e+000
1.455427951519238e-007	-1.029470e+001	0.000000e+000
1.457869357769238e-007	-1.028842e+001	0.000000e+000
1.460310764019238e-007	-1.028247e+001	0.000000e+000
1.462752170269238e-007	-1.027687e+001	0.000000e+000
1.465193576519238e-007	-1.027164e+001	0.000000e+000
1.467634982769238e-007	-1.026677e+001	0.000000e+000
1.470076389019238e-007	-1.026229e+001	0.000000e+000
1.472517795269238e-007	-1.025819e+001	0.000000e+000
1.474959201519238e-007	-1.025447e+001	0.000000e+000
1.477400607769238e-007	-1.025115e+001	0.000000e+000
1.479842014019238e-007	-1.024820e+001	0.000000e+000
1.482283420269238e-007	-1.024564e+001	0.000000e+000
1.484724826519238e-007	-1.024344e+001	0.000000e+000
1.489607639019239e-007	-1.024013e+001	0.000000e+000
1.494490451519239e-007	-1.023819e+001	0.000000e+000
1.499373264019239e-007	-1.023751e+001	0.000000e+000
1.504256076519239e-007	-1.023797e+001	0.000000e+000
1.509138889019239e-007	-1.023946e+001	0.000000e+000
1.514021701519239e-007	-1.024183e+001	0.000000e+000
1.518904514019239e-007	-1.024497e+001	0.000000e+000
1.523787326519239e-007	-1.024874e+001	0.000000e+000
1.528670139019240e-007	-1.025301e+001	0.000000e+000
1.533552951519240e-007	-1.025767e+001	0.000000e+000
1.538435764019240e-007	-1.026260e+001	0.000000e+000
1.545759982769240e-007	-1.027028e+001	0.000000e+000
1.553084201519240e-007	-1.027804e+001	0.000000e+000
1.560408420269240e-007	-1.028562e+001	0.000000e+000
1.567732639019240e-007	-1.029282e+001	0.000000e+000
1.575056857769241e-007	-1.029948e+001	0.000000e+000
1.582381076519241e-007	-1.030549e+001	0.000000e+000
1.589705295269241e-007	-1.031079e+001	0.000000e+000
1.597029514019241e-007	-1.031534e+001	0.000000e+000
1.599470920269241e-007	-1.031670e+001	0.000000e+000
1.604353732769241e-007	-1.031916e+001	0.000000e+000
1.609236545269241e-007	-1.032131e+001	0.000000e+000
1.614119357769242e-007	-1.032315e+001	0.000000e+000
1.619002170269242e-007	-1.032470e+001	0.000000e+000
1.623884982769242e-007	-1.032599e+001	0.000000e+000
1.628767795269242e-007	-1.032702e+001	0.000000e+000
1.633650607769242e-007	-1.032783e+001	0.000000e+000
1.640974826519242e-007	-1.032865e+001	0.000000e+000
1.648299045269242e-007	-1.032909e+001	0.000000e+000
1.650000000000000e-007	-1.032915e+001	0.000000e+000
1.650244140625000e-007	-1.032916e+001	3.255010e-005
1.650732421875000e-007	-1.032917e+001	9.765029e-005
1.651708984375000e-007	-1.032918e+001	2.278507e-004
1.652322159774069e-007	-1.032919e+001	3.096024e-004
1.652935335173139e-007	-1.032920e+001	3.913541e-004
1.653548510572208e-007	-1.032921e+001	4.731059e-004
1.654161685971277e-007	-1.032921e+001	5.548576e-004
1.654774861370346e-007	-1.032921e+001	6.366093e-004
1.655388036769415e-007	-1.032921e+001	7.183611e-004
1.656001212168485e-007	-1.032921e+001	8.001128e-004
1.656611563730985e-007	-1.032921e+001	8.814880e-004
1.657832266855985e-007	-1.032919e+001	1.044238e-003
1.660273673105985e-007	-1.032914e+001	1.369739e-003
1.662715079355985e-007	-1.032907e+001	1.695240e-003
1.665156485605985e-007	-1.032897e+001	2.020741e-003
1.667597891855985e-007	-1.032885e+001	2.346242e-003
1.670039298105985e-007	-1.032871e+001	2.671743e-003
1.672480704355985e-007	-1.032854e+001	2.997244e-003
1.675000000000000e-007	-1.032835e+001	3.333130e-003
1.676090451516210e-007	-1.032825e+001	3.478528e-003
1.677336681820450e-007	-1.032812e+001	3.644697e-003
1.679778088070450e-007	-1.032782e+001	3.970228e-003
1.682219494320451e-007	-1.032742e+001	4.295758e-003
1.684660900570451e-007	-1.032685e+001	4.621289e-003
1.687102306820451e-007	-1.032605e+001	4.946820e-003
1.689543713070451e-007	-1.032489e+001	5.272351e-003
1.691985119320451e-007	-1.032324e+001	5.597882e-003
1.694426525570451e-007	-1.032092e+001	5.923412e-003
1.696867931820451e-007	-1.031772e+001	6.248943e-003
1.699931162542529e-007	-1.031367e+001	6.657386e-003
1.702994393264608e-007	-1.030559e+001	7.065829e-003
1.706057623986686e-007	-1.029349e+001	7.474273e-003
1.709120854708765e-007	-1.027737e+001	7.882716e-003
1.712184085430843e-007	-1.025723e+001	8.291159e-003
1.715247316152922e-007	-1.023307e+001	8.699603e-003
1.718310546875000e-007	-1.020488e+001	9.108046e-003
1.723081752232143e-007	-1.014869e+001	9.744203e-003
1.727852957589286e-007	-1.006795e+001	1.038035e-002
1.732624162946429e-007	-9.962660e+000	1.101650e-002
1.737395368303572e-007	-9.832825e+000	1.165263e-002
1.742166573660714e-007	-9.678443e+000	1.228876e-002
1.746937779017857e-007	-9.499512e+000	1.292488e-002
1.751708984375000e-007	-9.296034e+000	1.356100e-002
1.758544921875000e-007	-8.943536e+000	1.447249e-002
1.760986328125000e-007	-8.803019e+000	1.479802e-002
1.763427734375000e-007	-8.654514e+000	1.512355e-002
1.768310546875000e-007	-8.333588e+000	1.577461e-002
1.770751953125000e-007	-8.161241e+000	1.610014e-002
1.773193359375000e-007	-7.981556e+000	1.642567e-002
1.775091552734375e-007	-7.837511e+000	1.667877e-002
1.775871930803571e-007	-7.776369e+000	1.678282e-002
1.776652308872768e-007	-7.714415e+000	1.688687e-002
1.777432686941964e-007	-7.651648e+000	1.699092e-002
1.778213065011161e-007	-7.588069e+000	1.709497e-002
1.778993443080357e-007	-7.523676e+000	1.719902e-002
1.779773821149553e-007	-7.458472e+000	1.730306e-002
1.780554199218750e-007	-7.392454e+000	1.740711e-002
1.782507324218750e-007	-7.223635e+000	1.766753e-002
1.784948730468750e-007	-7.006821e+000	1.799304e-002
1.789831542968750e-007	-6.552723e+000	1.864407e-002
1.791284179687500e-007	-6.412027e+000	1.883776e-002
1.792736816406250e-007	-6.269212e+000	1.903144e-002
1.794189453125000e-007	-6.124278e+000	1.922512e-002
1.795642089843750e-007	-5.977225e+000	1.941880e-002
1.797094726562500e-007	-5.828054e+000	1.961248e-002
1.798547363281250e-007	-5.676763e+000	1.980617e-002
1.800000000000000e-007	-5.523354e+000	1.999985e-002
1.800732421875000e-007	-5.444775e+000	1.999985e-002
1.801708984375000e-007	-5.339033e+000	1.999986e-002
1.803662109375000e-007	-5.124815e+000	1.999987e-002
1.806103515625000e-007	-4.852595e+000	1.999988e-002
1.808544921875000e-007	-4.575262e+000	1.999990e-002
1.810986328125000e-007	-4.292751e+000	1.999991e-002
1.813427734375000e-007	-4.005288e+000	1.999993e-002
1.815869140625000e-007	-3.713098e+000	1.999994e-002
1.818310546875000e-007	-3.416405e+000	1.999996e-002
1.820751953125000e-007	-3.115435e+000	1.999997e-002
1.823193359375000e-007	-2.810657e+000	1.999999e-002
1.825000000000000e-007	-2.583131e+000	2.000000e-002
1.826708984375000e-007	-2.365087e+000	2.000000e-002
1.828662109375000e-007	-2.113770e+000	2.000000e-002
1.831103515625000e-007	-1.797052e+000	2.000000e-002
1.833544921875000e-007	-1.477470e+000	2.000000e-002
1.835986328125000e-007	-1.155131e+000	2.000000e-002
1.838427734375000e-007	-8.303316e-001	2.000000e-002
1.840869140625000e-007	-5.033915e-001	2.000000e-002
1.843615722656250e-007	-1.337821e-001	2.000000e-002
1.843800702819136e-007	-1.087895e-001	2.000000e-002
1.843985682982021e-007	-8.378956e-002	2.000000e-002
1.844170663144906e-007	-5.878236e-002	2.000000e-002
1.844355643307791e-007	-3.376788e-002	2.000000e-002
1.844540623470676e-007	-8.746138e-003	2.000000e-002
1.844725603633561e-007	1.628288e-002	2.000000e-002
1.844910583796446e-007	4.131917e-002	2.000000e-002
1.845955538368851e-007	1.829802e-001	2.000000e-002
1.847000492941257e-007	3.247216e-001	2.000000e-002
1.848045447513662e-007	4.665434e-001	2.000000e-002
1.849090402086067e-007	6.084455e-001	2.000000e-002
1.850135356658472e-007	7.504280e-001	2.000000e-002
1.851180311230877e-007	8.924908e-001	2.000000e-002
1.852225265803282e-007	1.034634e+000	2.000000e-002
1.854666672053282e-007	1.366292e+000	2.000000e-002
1.857108078303282e-007	1.697255e+000	2.000000e-002
1.859549484553283e-007	2.027014e+000	2.000000e-002
1.861990890803283e-007	2.355047e+000	2.000000e-002
1.864432297053283e-007	2.680830e+000	2.000000e-002
1.866873703303283e-007	3.003840e+000	2.000000e-002
1.869315109553283e-007	3.323563e+000	2.000000e-002
1.871756515803283e-007	3.639496e+000	2.000000e-002
1.874197922053283e-007	3.951156e+000	2.000000e-002
1.876639328303283e-007	4.258080e+000	2.000000e-002
1.879080734553283e-007	4.559833e+000	2.000000e-002
1.881522140803283e-007	4.856002e+000	2.000000e-002
1.883963547053283e-007	5.146205e+000	2.000000e-002
1.886404953303283e-007	5.430089e+000	2.000000e-002
1.888846359553283e-007	5.707330e+000	2.000000e-002
1.891287765803283e-007	5.977633e+000	2.000000e-002
1.893729172053283e-007	6.240733e+000	2.000000e-002
1.896170578303283e-007	6.496396e+000	2.000000e-002
1.898611984553283e-007	6.744414e+000	2.000000e-002
1.903494797053284e-007	7.216845e+000	2.000000e-002
1.905936203303284e-007	7.440991e+000	2.000000e-002
1.908377609553284e-007	7.656962e+000	2.000000e-002
1.910819015803284e-007	7.864694e+000	2.000000e-002
1.913260422053284e-007	8.064151e+000	2.000000e-002
1.915701828303284e-007	8.255322e+000	2.000000e-002
1.918143234553284e-007	8.438225e+000	2.000000e-002
1.920584640803284e-007	8.612893e+000	2.000000e-002
1.923026047053284e-007	8.779390e+000	2.000000e-002
1.925467453303284e-007	8.937796e+000	2.000000e-002
1.927908859553284e-007	9.088209e+000	2.000000e-002
1.930350265803284e-007	9.230749e+000	2.000000e-002
1.932791672053284e-007	9.365553e+000	2.000000e-002
1.935233078303284e-007	9.492768e+000	2.000000e-002
1.937674484553284e-007	9.612562e+000	2.000000e-002
1.940115890803284e-007	9.725112e+000	2.000000e-002
1.942557297053285e-007	9.830606e+000	2.000000e-002
1.944998703303285e-007	9.929244e+000	2.000000e-002
1.947440109553285e-007	1.002123e+001	2.000000e-002
1.949881515803285e-007	1.010679e+001	2.000000e-002
1.952322922053285e-007	1.018614e+001	2.000000e-002
1.954764328303285e-007	1.025951e+001	2.000000e-002
1.957205734553285e-007	1.032713e+001	2.000000e-002
1.959647140803285e-007	1.038924e+001	2.000000e-002
1.962088547053285e-007	1.044607e+001	2.000000e-002
1.964529953303285e-007	1.049786e+001	2.000000e-002
1.966971359553285e-007	1.054485e+001	2.000000e-002
1.969412765803285e-007	1.058729e+001	2.000000e-002
1.971854172053285e-007	1.062539e+001	2.000000e-002
1.974295578303285e-007	1.065942e+001	2.000000e-002
1.976736984553285e-007	1.068958e+001	2.000000e-002
1.979178390803285e-007	1.071611e+001	2.000000e-002
1.981619797053286e-007	1.073924e+001	2.000000e-002
1.984061203303286e-007	1.075919e+001	2.000000e-002
1.986502609553286e-007	1.077616e+001	2.000000e-002
1.988944015803286e-007	1.079037e+001	2.000000e-002
1.991385422053286e-007	1.080202e+001	2.000000e-002
1.993826828303286e-007	1.081131e+001	2.000000e-002
1.996268234553286e-007	1.081843e+001	2.000000e-002
1.998709640803286e-007	1.082355e+001	2.000000e-002
2.001151047053286e-007	1.082687e+001	2.000000e-002
2.003592453303286e-007	1.082854e+001	2.000000e-002
2.008475265803286e-007	1.082757e+001	2.000000e-002
2.013358078303286e-007	1.082187e+001	2.000000e-002
2.018240890803286e-007	1.081252e+001	2.000000e-002
2.025565109553287e-007	1.079378e+001	2.000000e-002
2.027864933484572e-007	1.078696e+001	2.000000e-002
2.030164757415857e-007	1.078004e+001	2.000000e-002
2.032464581347143e-007	1.077300e+001	2.000000e-002
2.034764405278428e-007	1.076586e+001	2.000000e-002
2.037064229209713e-007	1.075861e+001	2.000000e-002
2.039364053140999e-007	1.075125e+001	2.000000e-002
2.041663877072284e-007	1.074378e+001	2.000000e-002
2.046546689572284e-007	1.072871e+001	2.000000e-002
2.048988095822284e-007	1.072144e+001	2.000000e-002
2.051429502072284e-007	1.071441e+001	2.000000e-002
2.053870908322285e-007	1.070764e+001	2.000000e-002
2.056312314572285e-007	1.070116e+001	2.000000e-002
2.058753720822285e-007	1.069500e+001	2.000000e-002
2.061195127072285e-007	1.068918e+001	2.000000e-002
2.063636533322285e-007	1.068371e+001	2.000000e-002
2.066077939572285e-007	1.067861e+001	2.000000e-002
2.068519345822285e-007	1.067388e+001	2.000000e-002
2.070960752072285e-007	1.066953e+001	2.000000e-002
2.073402158322285e-007	1.066557e+001	2.000000e-002
2.075843564572285e-007	1.066200e+001	2.000000e-002
2.078284970822285e-007	1.065881e+001	2.000000e-002
2.080726377072285e-007	1.065601e+001	2.000000e-002
2.083167783322285e-007	1.065358e+001	2.000000e-002
2.085609189572285e-007	1.065152e+001	2.000000e-002
2.088050595822285e-007	1.064981e+001	2.000000e-002
2.090492002072285e-007	1.064846e+001	2.000000e-002
2.092933408322285e-007	1.064744e+001	2.000000e-002
2.095374814572286e-007	1.064675e+001	2.000000e-002
2.097816220822286e-007	1.064637e+001	2.000000e-002
2.100257627072286e-007	1.064629e+001	2.000000e-002
2.102699033322286e-007	1.064648e+001	2.000000e-002
2.105140439572286e-007	1.064694e+001	2.000000e-002
2.110023252072286e-007	1.064860e+001	2.000000e-002
2.114906064572286e-007	1.065112e+001	2.000000e-002
2.119788877072286e-007	1.065438e+001	2.000000e-002
2.124671689572286e-007	1.065825e+001	2.000000e-002
2.129554502072286e-007	1.066260e+001	2.000000e-002
2.134437314572286e-007	1.066731e+001	2.000000e-002
2.139320127072287e-007	1.067228e+001	2.000000e-002
2.146644345822287e-007	1.067999e+001	2.000000e-002
2.153968564572287e-007	1.068774e+001	2.000000e-002
2.161292783322287e-007	1.069528e+001	2.000000e-002
2.166175595822287e-007	1.070009e+001	2.000000e-002
2.171058408322287e-007	1.070468e+001	2.000000e-002
2.173499814572287e-007	1.070687e+001	2.000000e-002
2.175941220822287e-007	1.070900e+001	2.000000e-002
2.178382627072288e-007	1.071105e+001	2.000000e-002
2.180824033322288e-007	1.071303e+001	2.000000e-002
2.183265439572288e-007	1.071493e+001	2.000000e-002
2.185706845822288e-007	1.071674e+001	2.000000e-002
2.188148252072288e-007	1.071848e+001	2.000000e-002
2.190589658322288e-007	1.072013e+001	2.000000e-002
2.193031064572288e-007	1.072171e+001	2.000000e-002
2.195472470822288e-007	1.072319e+001	2.000000e-002
2.197913877072288e-007	1.072460e+001	2.000000e-002
2.200355283322288e-007	1.072592e+001	2.000000e-002
2.202796689572288e-007	1.072717e+001	2.000000e-002
2.205238095822288e-007	1.072833e+001	2.000000e-002
2.207679502072288e-007	1.072941e+001	2.000000e-002
2.210120908322288e-007	1.073042e+001	2.000000e-002
2.212562314572288e-007	1.073135e+001	2.000000e-002
2.217445127072288e-007	1.073299e+001	2.000000e-002
2.222327939572289e-007	1.073436e+001	2.000000e-002
2.227210752072289e-007	1.073547e+001	2.000000e-002
2.232093564572289e-007	1.073635e+001	2.000000e-002
2.236976377072289e-007	1.073701e+001	2.000000e-002
2.244300595822289e-007	1.073765e+001	2.000000e-002
2.251624814572289e-007	1.073793e+001	2.000000e-002
2.258949033322289e-007	1.073792e+001	2.000000e-002
2.264180618143718e-007	1.073774e+001	2.000000e-002
2.269412202965147e-007	1.073751e+001	2.000000e-002
2.274643787786576e-007	1.073724e+001	2.000000e-002
2.279875372608004e-007	1.073692e+001	2.000000e-002
2.285106957429433e-007	1.073655e+001	2.000000e-002
2.290338542250862e-007	1.073615e+001	2.000000e-002
2.295570127072290e-007	1.073570e+001	2.000000e-002
2.303591890465148e-007	1.073505e+001	2.000000e-002
2.311613653858005e-007	1.073447e+001	2.000000e-002
2.319635417250862e-007	1.073397e+001	2.000000e-002
2.327657180643720e-007	1.073353e+001	2.000000e-002
2.335678944036577e-007	1.073317e+001	2.000000e-002
2.343700707429434e-007	1.073287e+001	2.000000e-002
2.351722470822292e-007	1.073265e+001	2.000000e-002
2.360093006536577e-007	1.073253e+001	2.000000e-002
2.368463542250863e-007	1.073245e+001	2.000000e-002
2.376834077965148e-007	1.073242e+001	2.000000e-002
2.385204613679434e-007	1.073242e+001	2.000000e-002
2.393575149393720e-007	1.073247e+001	2.000000e-002
2.401945685108005e-007	1.073255e+001	2.000000e-002
2.410316220822291e-007	1.073268e+001	2.000000e-002
2.422523252072290e-007	1.073285e+001	2.000000e-002
2.434730283322288e-007	1.073299e+001	2.000000e-002
2.446937314572287e-007	1.073312e+001	2.000000e-002
2.459144345822286e-007	1.073322e+001	2.000000e-002
2.471351377072285e-007	1.073330e+001	2.000000e-002
2.483558408322284e-007	1.073337e+001	2.000000e-002
2.495765439572283e-007	1.073340e+001	2.000000e-002
2.498206845822283e-007	1.073341e+001	2.000000e-002
2.500000000000000e-007	1.073341e+001	2.000000e-002
